ax: 0,08014	 ay: -0,04495	 az: -1,04691 	 ma: 1,05093	 mx: 1,05093	 mn: 1,05093<CR><LF>
ax: 0,07745	 ay: -0,04740	 az: -1,04666 	 ma: 1,05059	 mx: 1,05093	 mn: 1,05059<CR><LF>
ax: 0,08258	 ay: -0,04495	 az: -1,04739 	 ma: 1,05161	 mx: 1,05161	 mn: 1,05059<CR><LF>
ax: 0,07647	 ay: -0,04105	 az: -1,04471 	 ma: 1,04831	 mx: 1,05161	 mn: 1,04831<CR><LF>
ax: 0,07916	 ay: -0,04666	 az: -1,04862 	 ma: 1,05263	 mx: 1,05263	 mn: 1,04831<CR><LF>
ax: 0,08282	 ay: -0,04129	 az: -1,04788 	 ma: 1,05196	 mx: 1,05263	 mn: 1,04831<CR><LF>
ax: 0,07769	 ay: -0,04447	 az: -1,04691 	 ma: 1,05073	 mx: 1,05263	 mn: 1,04831<CR><LF>
ax: 0,07769	 ay: -0,04471	 az: -1,04568 	 ma: 1,04952	 mx: 1,05263	 mn: 1,04831<CR><LF>
ax: 0,07281	 ay: -0,04544	 az: -1,04666 	 ma: 1,05017	 mx: 1,05263	 mn: 1,04831<CR><LF>
ax: 0,07623	 ay: -0,04447	 az: -1,04862 	 ma: 1,05232	 mx: 1,05263	 mn: 1,04831<CR><LF>
ax: 0,07965	 ay: -0,04789	 az: -1,04300 	 ma: 1,04713	 mx: 1,05263	 mn: 1,04713<CR><LF>
ax: 0,07794	 ay: -0,04398	 az: -1,04837 	 ma: 1,05218	 mx: 1,05263	 mn: 1,04713<CR><LF>
ax: 0,07476	 ay: -0,04178	 az: -1,04593 	 ma: 1,04943	 mx: 1,05263	 mn: 1,04713<CR><LF>
ax: 0,07452	 ay: -0,04447	 az: -1,04275 	 ma: 1,04636	 mx: 1,05263	 mn: 1,04636<CR><LF>
ax: 0,07403	 ay: -0,04618	 az: -1,04813 	 ma: 1,05175	 mx: 1,05263	 mn: 1,04636<CR><LF>
ax: 0,07940	 ay: -0,04618	 az: -1,04129 	 ma: 1,04533	 mx: 1,05263	 mn: 1,04533<CR><LF>
ax: 0,07794	 ay: -0,04227	 az: -1,04251 	 ma: 1,04627	 mx: 1,05263	 mn: 1,04533<CR><LF>
ax: 0,07891	 ay: -0,04471	 az: -1,05081 	 ma: 1,05472	 mx: 1,05472	 mn: 1,04533<CR><LF>
ax: 0,07720	 ay: -0,04056	 az: -1,05155 	 ma: 1,05516	 mx: 1,05516	 mn: 1,04533<CR><LF>
ax: 0,07501	 ay: -0,04691	 az: -1,04495 	 ma: 1,04869	 mx: 1,05516	 mn: 1,04533<CR><LF>
ax: 0,07965	 ay: -0,04276	 az: -1,04495 	 ma: 1,04885	 mx: 1,05516	 mn: 1,04533<CR><LF>
ax: 0,07818	 ay: -0,04593	 az: -1,04495 	 ma: 1,04888	 mx: 1,05516	 mn: 1,04533<CR><LF>
ax: 0,07867	 ay: -0,04764	 az: -1,04617 	 ma: 1,05021	 mx: 1,05516	 mn: 1,04533<CR><LF>
ax: 0,07403	 ay: -0,04153	 az: -1,05033 	 ma: 1,05375	 mx: 1,05516	 mn: 1,04533<CR><LF>
ax: 0,07598	 ay: -0,04398	 az: -1,04691 	 ma: 1,05058	 mx: 1,05516	 mn: 1,04533<CR><LF>
ax: 0,07525	 ay: -0,04105	 az: -1,04153 	 ma: 1,04505	 mx: 1,05516	 mn: 1,04505<CR><LF>
ax: 0,07965	 ay: -0,04227	 az: -1,05399 	 ma: 1,05784	 mx: 1,05784	 mn: 1,04505<CR><LF>
ax: 0,07794	 ay: -0,04227	 az: -1,04544 	 ma: 1,04919	 mx: 1,05784	 mn: 1,04505<CR><LF>
ax: 0,07525	 ay: -0,04373	 az: -1,04862 	 ma: 1,05222	 mx: 1,05784	 mn: 1,04505<CR><LF>
ax: 0,07769	 ay: -0,04227	 az: -1,04715 	 ma: 1,05088	 mx: 1,05784	 mn: 1,04505<CR><LF>
ax: 0,07745	 ay: -0,04202	 az: -1,04202 	 ma: 1,04574	 mx: 1,05784	 mn: 1,04505<CR><LF>
ax: 0,07672	 ay: -0,04398	 az: -1,04397 	 ma: 1,04771	 mx: 1,05784	 mn: 1,04505<CR><LF>
ax: 0,07672	 ay: -0,04300	 az: -1,04471 	 ma: 1,04840	 mx: 1,05784	 mn: 1,04505<CR><LF>
ax: 0,07525	 ay: -0,04520	 az: -1,04984 	 ma: 1,05350	 mx: 1,05784	 mn: 1,04505<CR><LF>
ax: 0,07623	 ay: -0,04447	 az: -1,04495 	 ma: 1,04867	 mx: 1,05784	 mn: 1,04505<CR><LF>
ax: 0,08111	 ay: -0,04764	 az: -1,04764 	 ma: 1,05185	 mx: 1,05784	 mn: 1,04505<CR><LF>
ax: 0,07549	 ay: -0,04324	 az: -1,04837 	 ma: 1,05198	 mx: 1,05784	 mn: 1,04505<CR><LF>
ax: 0,08111	 ay: -0,04593	 az: -1,04788 	 ma: 1,05202	 mx: 1,05784	 mn: 1,04505<CR><LF>
ax: 0,07818	 ay: -0,04593	 az: -1,04691 	 ma: 1,05083	 mx: 1,05784	 mn: 1,04505<CR><LF>
ax: 0,07574	 ay: -0,04129	 az: -1,04471 	 ma: 1,04826	 mx: 1,05784	 mn: 1,04505<CR><LF>
ax: 0,07525	 ay: -0,04129	 az: -1,04373 	 ma: 1,04725	 mx: 1,05784	 mn: 1,04505<CR><LF>
ax: 0,07647	 ay: -0,04593	 az: -1,04862 	 ma: 1,05240	 mx: 1,05784	 mn: 1,04505<CR><LF>
ax: 0,07989	 ay: -0,04202	 az: -1,04129 	 ma: 1,04519	 mx: 1,05784	 mn: 1,04505<CR><LF>
ax: 0,07696	 ay: -0,04471	 az: -1,04202 	 ma: 1,04581	 mx: 1,05784	 mn: 1,04505<CR><LF>
ax: 0,07598	 ay: -0,04471	 az: -1,04153 	 ma: 1,04526	 mx: 1,05784	 mn: 1,04505<CR><LF>
ax: 0,08038	 ay: -0,04324	 az: -1,04202 	 ma: 1,04601	 mx: 1,05784	 mn: 1,04505<CR><LF>
ax: 0,07891	 ay: -0,04373	 az: -1,04006 	 ma: 1,04397	 mx: 1,05784	 mn: 1,04397<CR><LF>
ax: 0,08014	 ay: -0,04178	 az: -1,04422 	 ma: 1,04812	 mx: 1,05784	 mn: 1,04397<CR><LF>
ax: 0,07305	 ay: -0,04300	 az: -1,04739 	 ma: 1,05082	 mx: 1,05784	 mn: 1,04397<CR><LF>
ax: 0,08038	 ay: -0,04129	 az: -1,04153 	 ma: 1,04544	 mx: 1,05784	 mn: 1,04397<CR><LF>
ax: 0,07965	 ay: -0,04471	 az: -1,04251 	 ma: 1,04650	 mx: 1,05784	 mn: 1,04397<CR><LF>
ax: 0,07965	 ay: -0,04764	 az: -1,04642 	 ma: 1,05052	 mx: 1,05784	 mn: 1,04397<CR><LF>
ax: 0,07696	 ay: -0,04373	 az: -1,04617 	 ma: 1,04991	 mx: 1,05784	 mn: 1,04397<CR><LF>
ax: 0,07891	 ay: -0,04300	 az: -1,04129 	 ma: 1,04516	 mx: 1,05784	 mn: 1,04397<CR><LF>
ax: 0,07476	 ay: -0,04398	 az: -1,04568 	 ma: 1,04928	 mx: 1,05784	 mn: 1,04397<CR><LF>
ax: 0,08111	 ay: -0,04764	 az: -1,04568 	 ma: 1,04991	 mx: 1,05784	 mn: 1,04397<CR><LF>
ax: 0,07696	 ay: -0,04153	 az: -1,04300 	 ma: 1,04666	 mx: 1,05784	 mn: 1,04397<CR><LF>
ax: 0,07891	 ay: -0,04202	 az: -1,04642 	 ma: 1,05023	 mx: 1,05784	 mn: 1,04397<CR><LF>
ax: 0,07598	 ay: -0,04569	 az: -1,05081 	 ma: 1,05455	 mx: 1,05784	 mn: 1,04397<CR><LF>
ax: 0,07647	 ay: -0,04300	 az: -1,04544 	 ma: 1,04911	 mx: 1,05784	 mn: 1,04397<CR><LF>
ax: 0,07745	 ay: -0,04471	 az: -1,04593 	 ma: 1,04974	 mx: 1,05784	 mn: 1,04397<CR><LF>
ax: 0,07403	 ay: -0,04227	 az: -1,04568 	 ma: 1,04915	 mx: 1,05784	 mn: 1,04397<CR><LF>
ax: 0,07769	 ay: -0,04422	 az: -1,04617 	 ma: 1,04999	 mx: 1,05784	 mn: 1,04397<CR><LF>
ax: 0,07623	 ay: -0,04447	 az: -1,04691 	 ma: 1,05062	 mx: 1,05784	 mn: 1,04397<CR><LF>
ax: 0,07525	 ay: -0,04544	 az: -1,04226 	 ma: 1,04596	 mx: 1,05784	 mn: 1,04397<CR><LF>
ax: 0,07623	 ay: -0,04447	 az: -1,04471 	 ma: 1,04843	 mx: 1,05784	 mn: 1,04397<CR><LF>
ax: 0,07623	 ay: -0,04227	 az: -1,04324 	 ma: 1,04688	 mx: 1,05784	 mn: 1,04397<CR><LF>
ax: 0,07818	 ay: -0,04520	 az: -1,04568 	 ma: 1,04958	 mx: 1,05784	 mn: 1,04397<CR><LF>
ax: 0,07940	 ay: -0,04398	 az: -1,04397 	 ma: 1,04791	 mx: 1,05784	 mn: 1,04397<CR><LF>
ax: 0,07745	 ay: -0,04373	 az: -1,04251 	 ma: 1,04630	 mx: 1,05784	 mn: 1,04397<CR><LF>
ax: 0,07647	 ay: -0,04764	 az: -1,04642 	 ma: 1,05029	 mx: 1,05784	 mn: 1,04397<CR><LF>
ax: 0,07672	 ay: -0,04593	 az: -1,03762 	 ma: 1,04147	 mx: 1,05784	 mn: 1,04147<CR><LF>
ax: 0,07672	 ay: -0,04495	 az: -1,04691 	 ma: 1,05068	 mx: 1,05784	 mn: 1,04147<CR><LF>
ax: 0,07843	 ay: -0,04153	 az: -1,04666 	 ma: 1,05042	 mx: 1,05784	 mn: 1,04147<CR><LF>
ax: 0,07672	 ay: -0,04398	 az: -1,04471 	 ma: 1,04844	 mx: 1,05784	 mn: 1,04147<CR><LF>
ax: 0,07818	 ay: -0,04447	 az: -1,04813 	 ma: 1,05198	 mx: 1,05784	 mn: 1,04147<CR><LF>
ax: 0,07330	 ay: -0,04447	 az: -1,04349 	 ma: 1,04700	 mx: 1,05784	 mn: 1,04147<CR><LF>
ax: 0,07916	 ay: -0,04813	 az: -1,04544 	 ma: 1,04954	 mx: 1,05784	 mn: 1,04147<CR><LF>
ax: 0,08038	 ay: -0,03982	 az: -1,04373 	 ma: 1,04758	 mx: 1,05784	 mn: 1,04147<CR><LF>
ax: 0,07940	 ay: -0,04178	 az: -1,04642 	 ma: 1,05026	 mx: 1,05784	 mn: 1,04147<CR><LF>
ax: 0,07769	 ay: -0,04471	 az: -1,04202 	 ma: 1,04587	 mx: 1,05784	 mn: 1,04147<CR><LF>
ax: 0,07916	 ay: -0,04324	 az: -1,04153 	 ma: 1,04543	 mx: 1,05784	 mn: 1,04147<CR><LF>
ax: 0,07476	 ay: -0,04398	 az: -1,04495 	 ma: 1,04855	 mx: 1,05784	 mn: 1,04147<CR><LF>
ax: 0,07696	 ay: -0,04764	 az: -1,04764 	 ma: 1,05154	 mx: 1,05784	 mn: 1,04147<CR><LF>
ax: 0,07476	 ay: -0,04471	 az: -1,04446 	 ma: 1,04809	 mx: 1,05784	 mn: 1,04147<CR><LF>
ax: 0,07476	 ay: -0,04447	 az: -1,04251 	 ma: 1,04613	 mx: 1,05784	 mn: 1,04147<CR><LF>
ax: 0,07378	 ay: -0,04153	 az: -1,04886 	 ma: 1,05227	 mx: 1,05784	 mn: 1,04147<CR><LF>
ax: 0,08258	 ay: -0,04569	 az: -1,04568 	 ma: 1,04993	 mx: 1,05784	 mn: 1,04147<CR><LF>
ax: 0,07769	 ay: -0,04593	 az: -1,04349 	 ma: 1,04738	 mx: 1,05784	 mn: 1,04147<CR><LF>
ax: 0,07745	 ay: -0,04618	 az: -1,04764 	 ma: 1,05151	 mx: 1,05784	 mn: 1,04147<CR><LF>
ax: 0,09040	 ay: -0,04178	 az: -1,04300 	 ma: 1,04774	 mx: 1,05784	 mn: 1,04147<CR><LF>
ax: 0,11263	 ay: -0,03152	 az: -1,04666 	 ma: 1,05318	 mx: 1,05784	 mn: 1,04147<CR><LF>
ax: 0,05057	 ay: -0,06474	 az: -1,04275 	 ma: 1,04598	 mx: 1,05784	 mn: 1,04147<CR><LF>
ax: 0,07305	 ay: -0,04618	 az: -1,04446 	 ma: 1,04803	 mx: 1,05784	 mn: 1,04147<CR><LF>
ax: 0,07891	 ay: -0,04544	 az: -1,04422 	 ma: 1,04818	 mx: 1,05784	 mn: 1,04147<CR><LF>
ax: 0,07769	 ay: -0,05033	 az: -1,04886 	 ma: 1,05294	 mx: 1,05784	 mn: 1,04147<CR><LF>
ax: 0,07745	 ay: -0,04422	 az: -1,04251 	 ma: 1,04632	 mx: 1,05784	 mn: 1,04147<CR><LF>
ax: 0,08307	 ay: -0,04642	 az: -1,05081 	 ma: 1,05511	 mx: 1,05784	 mn: 1,04147<CR><LF>
ax: 0,06059	 ay: -0,03567	 az: -1,05130 	 ma: 1,05365	 mx: 1,05784	 mn: 1,04147<CR><LF>
ax: 0,06303	 ay: -0,03909	 az: -1,04520 	 ma: 1,04782	 mx: 1,05784	 mn: 1,04147<CR><LF>
ax: 0,08185	 ay: -0,02345	 az: -1,05130 	 ma: 1,05475	 mx: 1,05784	 mn: 1,04147<CR><LF>
ax: 0,09382	 ay: -0,06230	 az: -1,03835 	 ma: 1,04444	 mx: 1,05784	 mn: 1,04147<CR><LF>
ax: 0,02859	 ay: -0,07623	 az: -1,05692 	 ma: 1,06005	 mx: 1,06005	 mn: 1,04147<CR><LF>
ax: 0,18495	 ay: -0,03372	 az: -1,11360 	 ma: 1,12936	 mx: 1,12936	 mn: 1,04147<CR><LF>
ax: 0,09284	 ay: -0,05351	 az: -1,06010 	 ma: 1,06550	 mx: 1,12936	 mn: 1,04147<CR><LF>
ax: 0,03396	 ay: -0,07085	 az: -1,04031 	 ma: 1,04327	 mx: 1,12936	 mn: 1,04147<CR><LF>
ax: 0,04349	 ay: -0,03078	 az: -1,03640 	 ma: 1,03777	 mx: 1,12936	 mn: 1,03777<CR><LF>
ax: 0,02932	 ay: -0,00904	 az: -1,07256 	 ma: 1,07300	 mx: 1,12936	 mn: 1,03777<CR><LF>
ax: 0,10628	 ay: -0,02883	 az: -1,06254 	 ma: 1,06823	 mx: 1,12936	 mn: 1,03777<CR><LF>
ax: 0,08820	 ay: -0,11361	 az: -1,10847 	 ma: 1,11777	 mx: 1,12936	 mn: 1,03777<CR><LF>
ax: 0,13657	 ay: -0,12094	 az: -1,04764 	 ma: 1,06340	 mx: 1,12936	 mn: 1,03777<CR><LF>
ax: 0,10872	 ay: -0,04105	 az: -1,04544 	 ma: 1,05188	 mx: 1,12936	 mn: 1,03777<CR><LF>
ax: 0,09064	 ay: -0,08673	 az: -1,14121 	 ma: 1,14809	 mx: 1,14809	 mn: 1,03777<CR><LF>
ax: 0,14317	 ay: -0,06621	 az: -1,19692 	 ma: 1,20727	 mx: 1,20727	 mn: 1,03777<CR><LF>
ax: 0,22038	 ay: -0,05351	 az: -1,19252 	 ma: 1,21389	 mx: 1,21389	 mn: 1,03777<CR><LF>
ax: 0,19668	 ay: -0,09357	 az: -1,18201 	 ma: 1,20191	 mx: 1,21389	 mn: 1,03777<CR><LF>
ax: 0,19888	 ay: -0,04056	 az: -1,12484 	 ma: 1,14301	 mx: 1,21389	 mn: 1,03777<CR><LF>
ax: 0,16027	 ay: -0,03934	 az: -1,10701 	 ma: 1,11924	 mx: 1,21389	 mn: 1,03777<CR><LF>
ax: 0,17322	 ay: -0,05033	 az: -1,10383 	 ma: 1,11847	 mx: 1,21389	 mn: 1,03777<CR><LF>
ax: 0,18446	 ay: -0,00098	 az: -1,13217 	 ma: 1,14710	 mx: 1,21389	 mn: 1,03777<CR><LF>
ax: 0,20523	 ay: -0,01710	 az: -1,09601 	 ma: 1,11519	 mx: 1,21389	 mn: 1,03777<CR><LF>
ax: 0,17420	 ay: -0,02883	 az: -1,06670 	 ma: 1,08121	 mx: 1,21389	 mn: 1,03777<CR><LF>
ax: 0,20059	 ay: -0,00195	 az: -1,07793 	 ma: 1,09644	 mx: 1,21389	 mn: 1,03777<CR><LF>
ax: 0,16785	 ay: 0,00928	 az: -1,09992 	 ma: 1,11269	 mx: 1,21389	 mn: 1,03777<CR><LF>
ax: 0,14537	 ay: 0,01222	 az: -1,05277 	 ma: 1,06283	 mx: 1,21389	 mn: 1,03777<CR><LF>
ax: 0,14366	 ay: 0,00391	 az: -1,07183 	 ma: 1,08142	 mx: 1,21389	 mn: 1,03777<CR><LF>
ax: 0,15685	 ay: -0,00147	 az: -1,06523 	 ma: 1,07672	 mx: 1,21389	 mn: 1,03777<CR><LF>
ax: 0,19423	 ay: 0,03298	 az: -1,05619 	 ma: 1,07441	 mx: 1,21389	 mn: 1,03777<CR><LF>
ax: 0,18348	 ay: 0,02956	 az: -1,06328 	 ma: 1,07940	 mx: 1,21389	 mn: 1,03777<CR><LF>
ax: 0,15368	 ay: 0,02394	 az: -1,01148 	 ma: 1,02337	 mx: 1,21389	 mn: 1,02337<CR><LF>
ax: 0,13315	 ay: 0,03396	 az: -0,99071 	 ma: 1,00020	 mx: 1,21389	 mn: 1,00020<CR><LF>
ax: 0,13609	 ay: 0,00977	 az: -1,01490 	 ma: 1,02403	 mx: 1,21389	 mn: 1,00020<CR><LF>
ax: 0,18642	 ay: 0,04495	 az: -1,04471 	 ma: 1,06216	 mx: 1,21389	 mn: 1,00020<CR><LF>
ax: 0,18715	 ay: 0,03543	 az: -1,03909 	 ma: 1,05640	 mx: 1,21389	 mn: 1,00020<CR><LF>
ax: 0,13315	 ay: 0,02321	 az: -1,00537 	 ma: 1,01442	 mx: 1,21389	 mn: 1,00020<CR><LF>
ax: 0,10139	 ay: 0,00855	 az: -1,00659 	 ma: 1,01172	 mx: 1,21389	 mn: 1,00020<CR><LF>
ax: 0,10799	 ay: 0,01051	 az: -1,01661 	 ma: 1,02238	 mx: 1,21389	 mn: 1,00020<CR><LF>
ax: 0,13315	 ay: 0,04105	 az: -1,05350 	 ma: 1,06268	 mx: 1,21389	 mn: 1,00020<CR><LF>
ax: 0,15074	 ay: 0,05253	 az: -1,07989 	 ma: 1,09162	 mx: 1,21389	 mn: 1,00020<CR><LF>
ax: 0,15710	 ay: 0,02907	 az: -1,04397 	 ma: 1,05613	 mx: 1,21389	 mn: 1,00020<CR><LF>
ax: 0,10017	 ay: 0,02516	 az: -1,04813 	 ma: 1,05320	 mx: 1,21389	 mn: 1,00020<CR><LF>
ax: 0,06426	 ay: 0,04398	 az: -1,04495 	 ma: 1,04785	 mx: 1,21389	 mn: 1,00020<CR><LF>
ax: 0,03591	 ay: 0,06035	 az: -1,01026 	 ma: 1,01270	 mx: 1,21389	 mn: 1,00020<CR><LF>
ax: 0,03347	 ay: 0,05961	 az: -1,02565 	 ma: 1,02793	 mx: 1,21389	 mn: 1,00020<CR><LF>
ax: 0,04715	 ay: 0,07696	 az: -1,01148 	 ma: 1,01550	 mx: 1,21389	 mn: 1,00020<CR><LF>
ax: 0,04642	 ay: 0,06426	 az: -1,01881 	 ma: 1,02189	 mx: 1,21389	 mn: 1,00020<CR><LF>
ax: 0,03616	 ay: 0,07794	 az: -1,02736 	 ma: 1,03095	 mx: 1,21389	 mn: 1,00020<CR><LF>
ax: 0,04007	 ay: 0,08209	 az: -1,02541 	 ma: 1,02947	 mx: 1,21389	 mn: 1,00020<CR><LF>
ax: 0,04202	 ay: 0,07061	 az: -1,05130 	 ma: 1,05451	 mx: 1,21389	 mn: 1,00020<CR><LF>
ax: 0,04862	 ay: 0,10164	 az: -1,06621 	 ma: 1,07214	 mx: 1,21389	 mn: 1,00020<CR><LF>
ax: 0,01759	 ay: 0,07647	 az: -1,03958 	 ma: 1,04253	 mx: 1,21389	 mn: 1,00020<CR><LF>
ax: -0,02223	 ay: 0,07403	 az: -1,04446 	 ma: 1,04732	 mx: 1,21389	 mn: 1,00020<CR><LF>
ax: -0,01173	 ay: 0,08063	 az: -1,02541 	 ma: 1,02864	 mx: 1,21389	 mn: 1,00020<CR><LF>
ax: -0,03005	 ay: 0,06352	 az: -1,04935 	 ma: 1,05170	 mx: 1,21389	 mn: 1,00020<CR><LF>
ax: 0,01393	 ay: 0,08038	 az: -1,10505 	 ma: 1,10806	 mx: 1,21389	 mn: 1,00020<CR><LF>
ax: 0,02883	 ay: 0,09993	 az: -1,07305 	 ma: 1,07808	 mx: 1,21389	 mn: 1,00020<CR><LF>
ax: -0,00366	 ay: 0,07305	 az: -1,02418 	 ma: 1,02679	 mx: 1,21389	 mn: 1,00020<CR><LF>
ax: -0,00928	 ay: 0,05204	 az: -1,01172 	 ma: 1,01310	 mx: 1,21389	 mn: 1,00020<CR><LF>
ax: 0,01002	 ay: 0,04447	 az: -1,02614 	 ma: 1,02715	 mx: 1,21389	 mn: 1,00020<CR><LF>
ax: 0,04838	 ay: 0,07867	 az: -1,05424 	 ma: 1,05827	 mx: 1,21389	 mn: 1,00020<CR><LF>
ax: 0,04373	 ay: 0,10481	 az: -1,05350 	 ma: 1,05961	 mx: 1,21389	 mn: 1,00020<CR><LF>
ax: 0,02394	 ay: 0,08331	 az: -1,00317 	 ma: 1,00691	 mx: 1,21389	 mn: 1,00020<CR><LF>
ax: 0,02028	 ay: 0,07061	 az: -0,98656 	 ma: 0,98929	 mx: 1,21389	 mn: 0,98929<CR><LF>
ax: 0,03543	 ay: 0,06255	 az: -1,00171 	 ma: 1,00428	 mx: 1,21389	 mn: 0,98929<CR><LF>
ax: 0,04960	 ay: 0,04544	 az: -1,02345 	 ma: 1,02566	 mx: 1,21389	 mn: 0,98929<CR><LF>
ax: 0,05986	 ay: 0,07085	 az: -1,02907 	 ma: 1,03324	 mx: 1,21389	 mn: 0,98929<CR><LF>
ax: 0,04813	 ay: 0,09040	 az: -1,01490 	 ma: 1,02005	 mx: 1,21389	 mn: 0,98929<CR><LF>
ax: 0,03469	 ay: 0,12143	 az: -1,02467 	 ma: 1,03243	 mx: 1,21389	 mn: 0,98929<CR><LF>
ax: -0,00904	 ay: 0,09846	 az: -1,02272 	 ma: 1,02749	 mx: 1,21389	 mn: 0,98929<CR><LF>
ax: 0,00171	 ay: 0,07159	 az: -0,98729 	 ma: 0,98989	 mx: 1,21389	 mn: 0,98929<CR><LF>
ax: 0,01613	 ay: 0,07696	 az: -0,99658 	 ma: 0,99967	 mx: 1,21389	 mn: 0,98929<CR><LF>
ax: 0,00244	 ay: 0,08795	 az: -0,99902 	 ma: 1,00289	 mx: 1,21389	 mn: 0,98929<CR><LF>
ax: -0,00684	 ay: 0,08111	 az: -0,99755 	 ma: 1,00087	 mx: 1,21389	 mn: 0,98929<CR><LF>
ax: -0,02419	 ay: 0,07110	 az: -1,00781 	 ma: 1,01061	 mx: 1,21389	 mn: 0,98929<CR><LF>
ax: -0,02541	 ay: 0,07501	 az: -1,00977 	 ma: 1,01287	 mx: 1,21389	 mn: 0,98929<CR><LF>
ax: -0,04471	 ay: 0,06035	 az: -0,99706 	 ma: 0,99989	 mx: 1,21389	 mn: 0,98929<CR><LF>
ax: -0,05668	 ay: 0,03714	 az: -1,00122 	 ma: 1,00351	 mx: 1,21389	 mn: 0,98929<CR><LF>
ax: -0,04862	 ay: 0,04495	 az: -1,02418 	 ma: 1,02632	 mx: 1,21389	 mn: 0,98929<CR><LF>
ax: -0,03347	 ay: 0,04471	 az: -1,03787 	 ma: 1,03937	 mx: 1,21389	 mn: 0,98929<CR><LF>
ax: -0,03469	 ay: 0,05546	 az: -1,05350 	 ma: 1,05553	 mx: 1,21389	 mn: 0,98929<CR><LF>
ax: -0,02834	 ay: 0,06132	 az: -1,05155 	 ma: 1,05372	 mx: 1,21389	 mn: 0,98929<CR><LF>
ax: -0,07696	 ay: 0,03934	 az: -1,03005 	 ma: 1,03367	 mx: 1,21389	 mn: 0,98929<CR><LF>
ax: -0,09162	 ay: 0,01881	 az: -1,01368 	 ma: 1,01798	 mx: 1,21389	 mn: 0,98929<CR><LF>
ax: -0,11214	 ay: 0,02126	 az: -1,05008 	 ma: 1,05627	 mx: 1,21389	 mn: 0,98929<CR><LF>
ax: -0,08698	 ay: 0,06255	 az: -1,07109 	 ma: 1,07644	 mx: 1,21389	 mn: 0,98929<CR><LF>
ax: -0,09748	 ay: 0,06328	 az: -1,06499 	 ma: 1,07131	 mx: 1,21389	 mn: 0,98929<CR><LF>
ax: -0,08185	 ay: 0,05180	 az: -1,03420 	 ma: 1,03873	 mx: 1,21389	 mn: 0,98929<CR><LF>
ax: -0,09186	 ay: 0,05375	 az: -1,04349 	 ma: 1,04890	 mx: 1,21389	 mn: 0,98929<CR><LF>
ax: -0,08673	 ay: 0,03591	 az: -1,07280 	 ma: 1,07690	 mx: 1,21389	 mn: 0,98929<CR><LF>
ax: -0,08258	 ay: 0,04398	 az: -1,07989 	 ma: 1,08393	 mx: 1,21389	 mn: 0,98929<CR><LF>
ax: -0,10115	 ay: 0,05204	 az: -1,07134 	 ma: 1,07736	 mx: 1,21389	 mn: 0,98929<CR><LF>
ax: -0,11312	 ay: 0,05888	 az: -1,04153 	 ma: 1,04931	 mx: 1,21389	 mn: 0,98929<CR><LF>
ax: -0,11459	 ay: 0,05961	 az: -1,03029 	 ma: 1,03836	 mx: 1,21389	 mn: 0,98929<CR><LF>
ax: -0,12143	 ay: 0,05131	 az: -1,06230 	 ma: 1,07045	 mx: 1,21389	 mn: 0,98929<CR><LF>
ax: -0,08893	 ay: 0,06914	 az: -1,05888 	 ma: 1,06485	 mx: 1,21389	 mn: 0,98929<CR><LF>
ax: -0,09577	 ay: 0,05375	 az: -1,03689 	 ma: 1,04269	 mx: 1,21389	 mn: 0,98929<CR><LF>
ax: -0,08771	 ay: 0,04715	 az: -1,01832 	 ma: 1,02318	 mx: 1,21389	 mn: 0,98929<CR><LF>
ax: -0,08698	 ay: 0,04324	 az: -1,02858 	 ma: 1,03316	 mx: 1,21389	 mn: 0,98929<CR><LF>
ax: -0,09626	 ay: 0,05546	 az: -1,03933 	 ma: 1,04525	 mx: 1,21389	 mn: 0,98929<CR><LF>
ax: -0,08698	 ay: 0,05277	 az: -1,03567 	 ma: 1,04065	 mx: 1,21389	 mn: 0,98929<CR><LF>
ax: -0,09211	 ay: 0,06084	 az: -1,03274 	 ma: 1,03862	 mx: 1,21389	 mn: 0,98929<CR><LF>
ax: -0,09675	 ay: 0,06523	 az: -1,05350 	 ma: 1,05994	 mx: 1,21389	 mn: 0,98929<CR><LF>
ax: -0,07867	 ay: 0,05277	 az: -1,04495 	 ma: 1,04924	 mx: 1,21389	 mn: 0,98929<CR><LF>
ax: -0,07183	 ay: 0,05986	 az: -1,03787 	 ma: 1,04207	 mx: 1,21389	 mn: 0,98929<CR><LF>
ax: -0,06914	 ay: 0,06792	 az: -1,04959 	 ma: 1,05406	 mx: 1,21389	 mn: 0,98929<CR><LF>
ax: -0,06352	 ay: 0,08722	 az: -1,08942 	 ma: 1,09475	 mx: 1,21389	 mn: 0,98929<CR><LF>
ax: -0,06816	 ay: 0,09431	 az: -1,10872 	 ma: 1,11481	 mx: 1,21389	 mn: 0,98929<CR><LF>
ax: -0,06694	 ay: 0,11923	 az: -1,09870 	 ma: 1,10718	 mx: 1,21389	 mn: 0,98929<CR><LF>
ax: -0,09138	 ay: 0,08282	 az: -1,08306 	 ma: 1,09006	 mx: 1,21389	 mn: 0,98929<CR><LF>
ax: -0,08331	 ay: 0,06328	 az: -1,05350 	 ma: 1,05868	 mx: 1,21389	 mn: 0,98929<CR><LF>
ax: -0,06401	 ay: 0,08844	 az: -1,06034 	 ma: 1,06595	 mx: 1,21389	 mn: 0,98929<CR><LF>
ax: -0,06157	 ay: 0,10188	 az: -1,06938 	 ma: 1,07599	 mx: 1,21389	 mn: 0,98929<CR><LF>
ax: -0,05033	 ay: 0,10237	 az: -1,04764 	 ma: 1,05383	 mx: 1,21389	 mn: 0,98929<CR><LF>
ax: -0,02565	 ay: 0,10726	 az: -1,03542 	 ma: 1,04128	 mx: 1,21389	 mn: 0,98929<CR><LF>
ax: -0,01784	 ay: 0,11019	 az: -1,03860 	 ma: 1,04458	 mx: 1,21389	 mn: 0,98929<CR><LF>
ax: -0,00195	 ay: 0,13047	 az: -1,01392 	 ma: 1,02228	 mx: 1,21389	 mn: 0,98929<CR><LF>
ax: -0,03518	 ay: 0,08453	 az: -0,99853 	 ma: 1,00272	 mx: 1,21389	 mn: 0,98929<CR><LF>
ax: -0,03909	 ay: 0,08234	 az: -0,96775 	 ma: 0,97203	 mx: 1,21389	 mn: 0,97203<CR><LF>
ax: -0,03030	 ay: 0,10335	 az: -0,96530 	 ma: 0,97129	 mx: 1,21389	 mn: 0,97129<CR><LF>
ax: -0,02101	 ay: 0,11336	 az: -0,99096 	 ma: 0,99764	 mx: 1,21389	 mn: 0,97129<CR><LF>
ax: -0,00977	 ay: 0,11947	 az: -0,99291 	 ma: 1,00012	 mx: 1,21389	 mn: 0,97129<CR><LF>
ax: -0,03640	 ay: 0,09724	 az: -0,98974 	 ma: 0,99517	 mx: 1,21389	 mn: 0,97129<CR><LF>
ax: -0,05937	 ay: 0,11190	 az: -0,97141 	 ma: 0,97964	 mx: 1,21389	 mn: 0,97129<CR><LF>
ax: -0,05937	 ay: 0,10897	 az: -0,96750 	 ma: 0,97543	 mx: 1,21389	 mn: 0,97129<CR><LF>
ax: -0,06939	 ay: 0,10139	 az: -0,97654 	 ma: 0,98424	 mx: 1,21389	 mn: 0,97129<CR><LF>
ax: -0,06474	 ay: 0,10579	 az: -1,00097 	 ma: 1,00863	 mx: 1,21389	 mn: 0,97129<CR><LF>
ax: -0,06108	 ay: 0,11703	 az: -1,00733 	 ma: 1,01594	 mx: 1,21389	 mn: 0,97129<CR><LF>
ax: -0,05913	 ay: 0,12729	 az: -1,00000 	 ma: 1,00980	 mx: 1,21389	 mn: 0,97129<CR><LF>
ax: -0,07501	 ay: 0,11214	 az: -1,02027 	 ma: 1,02916	 mx: 1,21389	 mn: 0,97129<CR><LF>
ax: -0,06841	 ay: 0,11752	 az: -1,01099 	 ma: 1,02009	 mx: 1,21389	 mn: 0,97129<CR><LF>
ax: -0,07110	 ay: 0,11263	 az: -1,01661 	 ma: 1,02530	 mx: 1,21389	 mn: 0,97129<CR><LF>
ax: -0,07183	 ay: 0,10481	 az: -1,01490 	 ma: 1,02282	 mx: 1,21389	 mn: 0,97129<CR><LF>
ax: -0,06988	 ay: 0,10310	 az: -1,00684 	 ma: 1,01451	 mx: 1,21389	 mn: 0,97129<CR><LF>
ax: -0,07501	 ay: 0,11556	 az: -1,02150 	 ma: 1,03075	 mx: 1,21389	 mn: 0,97129<CR><LF>
ax: -0,06621	 ay: 0,11581	 az: -1,03371 	 ma: 1,04228	 mx: 1,21389	 mn: 0,97129<CR><LF>
ax: -0,06572	 ay: 0,12216	 az: -1,03738 	 ma: 1,04661	 mx: 1,21389	 mn: 0,97129<CR><LF>
ax: -0,04349	 ay: 0,11752	 az: -1,03664 	 ma: 1,04419	 mx: 1,21389	 mn: 0,97129<CR><LF>
ax: -0,02736	 ay: 0,13095	 az: -1,01172 	 ma: 1,02053	 mx: 1,21389	 mn: 0,97129<CR><LF>
ax: -0,01955	 ay: 0,12045	 az: -0,93403 	 ma: 0,94197	 mx: 1,21389	 mn: 0,94197<CR><LF>
ax: -0,01441	 ay: 0,12631	 az: -0,71585 	 ma: 0,72706	 mx: 1,21389	 mn: 0,72706<CR><LF>
ax: 0,08405	 ay: 0,07110	 az: -0,03885 	 ma: 0,11674	 mx: 1,21389	 mn: 0,11674<CR><LF>
ax: 0,07525	 ay: 0,04153	 az: -0,18031 	 ma: 0,19975	 mx: 1,21389	 mn: 0,11674<CR><LF>
ax: 0,07159	 ay: 0,01955	 az: -0,16272 	 ma: 0,17884	 mx: 1,21389	 mn: 0,11674<CR><LF>
ax: 0,07036	 ay: 0,00513	 az: -0,19399 	 ma: 0,20642	 mx: 1,21389	 mn: 0,11674<CR><LF>
ax: 0,07647	 ay: -0,00318	 az: -0,18715 	 ma: 0,20219	 mx: 1,21389	 mn: 0,11674<CR><LF>
ax: 0,08063	 ay: -0,00415	 az: -0,17395 	 ma: 0,19178	 mx: 1,21389	 mn: 0,11674<CR><LF>
ax: 0,08234	 ay: -0,00586	 az: -0,16589 	 ma: 0,18529	 mx: 1,21389	 mn: 0,11674<CR><LF>
ax: 0,06645	 ay: -0,00806	 az: -0,15001 	 ma: 0,16427	 mx: 1,21389	 mn: 0,11674<CR><LF>
ax: 0,05106	 ay: -0,01197	 az: -0,14048 	 ma: 0,14995	 mx: 1,21389	 mn: 0,11674<CR><LF>
ax: -6,65793	 ay: 3,59735	 az: -3,84289 	 ma: 8,48745	 mx: 8,48745	 mn: 0,11674<CR><LF>
ax: 1,07451	 ay: 0,42145	 az: -1,98704 	 ma: 2,29794	 mx: 8,48745	 mn: 0,11674<CR><LF>
ax: 0,25971	 ay: -0,36428	 az: 0,00024 	 ma: 0,44738	 mx: 8,48745	 mn: 0,11674<CR><LF>
ax: -0,03689	 ay: -0,35011	 az: -0,27974 	 ma: 0,44966	 mx: 8,48745	 mn: 0,11674<CR><LF>
ax: -0,14146	 ay: -0,32763	 az: -0,30051 	 ma: 0,46654	 mx: 8,48745	 mn: 0,11674<CR><LF>
ax: -0,09993	 ay: -0,38700	 az: -0,21476 	 ma: 0,45373	 mx: 8,48745	 mn: 0,11674<CR><LF>
ax: -0,04471	 ay: -0,71537	 az: -0,62643 	 ma: 0,95193	 mx: 8,48745	 mn: 0,11674<CR><LF>
ax: 0,14219	 ay: -0,23797	 az: -1,21133 	 ma: 1,24265	 mx: 8,48745	 mn: 0,11674<CR><LF>
ax: 0,28463	 ay: 0,09602	 az: -1,62203 	 ma: 1,64961	 mx: 8,48745	 mn: 0,11674<CR><LF>
ax: -0,03494	 ay: -0,17029	 az: -2,09748 	 ma: 2,10467	 mx: 8,48745	 mn: 0,11674<CR><LF>
ax: -0,03396	 ay: 0,01588	 az: -0,95553 	 ma: 0,95627	 mx: 8,48745	 mn: 0,11674<CR><LF>
ax: 0,26093	 ay: 0,00147	 az: -1,03151 	 ma: 1,06401	 mx: 8,48745	 mn: 0,11674<CR><LF>
ax: 0,14415	 ay: 0,06255	 az: -1,14610 	 ma: 1,15682	 mx: 8,48745	 mn: 0,11674<CR><LF>
ax: 0,04080	 ay: -0,03372	 az: -1,07891 	 ma: 1,08021	 mx: 8,48745	 mn: 0,11674<CR><LF>
ax: 0,02199	 ay: -0,00293	 az: -1,12607 	 ma: 1,12628	 mx: 8,48745	 mn: 0,11674<CR><LF>
ax: 0,01661	 ay: -0,10310	 az: -1,02394 	 ma: 1,02925	 mx: 8,48745	 mn: 0,11674<CR><LF>
ax: 0,13047	 ay: -0,06010	 az: -0,78500 	 ma: 0,79803	 mx: 8,48745	 mn: 0,11674<CR><LF>
ax: 0,09284	 ay: -0,09577	 az: -1,11874 	 ma: 1,12666	 mx: 8,48745	 mn: 0,11674<CR><LF>
ax: 0,09675	 ay: -0,04129	 az: -1,04178 	 ma: 1,04707	 mx: 8,48745	 mn: 0,11674<CR><LF>
ax: 0,09553	 ay: -0,02052	 az: -1,07036 	 ma: 1,07481	 mx: 8,48745	 mn: 0,11674<CR><LF>
ax: 0,05277	 ay: -0,00880	 az: -1,07060 	 ma: 1,07194	 mx: 8,48745	 mn: 0,11674<CR><LF>
ax: 0,06377	 ay: -0,00928	 az: -1,01954 	 ma: 1,02158	 mx: 8,48745	 mn: 0,11674<CR><LF>
ax: 0,02003	 ay: -0,03445	 az: -0,99706 	 ma: 0,99786	 mx: 8,48745	 mn: 0,11674<CR><LF>
ax: 0,05815	 ay: -0,03396	 az: -0,99560 	 ma: 0,99787	 mx: 8,48745	 mn: 0,11674<CR><LF>
ax: 0,06890	 ay: -0,03372	 az: -1,02321 	 ma: 1,02608	 mx: 8,48745	 mn: 0,11674<CR><LF>
ax: 0,06865	 ay: -0,01368	 az: -1,04178 	 ma: 1,04412	 mx: 8,48745	 mn: 0,11674<CR><LF>
ax: 0,07256	 ay: -0,01099	 az: -1,05546 	 ma: 1,05801	 mx: 8,48745	 mn: 0,11674<CR><LF>
ax: 0,06474	 ay: -0,02028	 az: -1,06670 	 ma: 1,06885	 mx: 8,48745	 mn: 0,11674<CR><LF>
ax: 0,06890	 ay: -0,00733	 az: -1,02516 	 ma: 1,02750	 mx: 8,48745	 mn: 0,11674<CR><LF>
ax: 0,07207	 ay: -0,00586	 az: -1,00879 	 ma: 1,01138	 mx: 8,48745	 mn: 0,11674<CR><LF>
ax: 0,08136	 ay: -0,01270	 az: -1,04886 	 ma: 1,05209	 mx: 8,48745	 mn: 0,11674<CR><LF>
ax: 0,08185	 ay: 0,00538	 az: -1,03982 	 ma: 1,04305	 mx: 8,48745	 mn: 0,11674<CR><LF>
ax: 0,08429	 ay: 0,00147	 az: -1,02663 	 ma: 1,03008	 mx: 8,48745	 mn: 0,11674<CR><LF>
ax: 0,08869	 ay: 0,00000	 az: -1,02443 	 ma: 1,02826	 mx: 8,48745	 mn: 0,11674<CR><LF>
ax: 0,08624	 ay: 0,00147	 az: -1,03322 	 ma: 1,03682	 mx: 8,48745	 mn: 0,11674<CR><LF>
ax: 0,07720	 ay: -0,00489	 az: -1,05448 	 ma: 1,05731	 mx: 8,48745	 mn: 0,11674<CR><LF>
ax: 0,08331	 ay: -0,00928	 az: -1,03689 	 ma: 1,04027	 mx: 8,48745	 mn: 0,11674<CR><LF>
ax: 0,09284	 ay: -0,00513	 az: -1,03738 	 ma: 1,04154	 mx: 8,48745	 mn: 0,11674<CR><LF>
ax: 0,08649	 ay: -0,01051	 az: -1,03371 	 ma: 1,03738	 mx: 8,48745	 mn: 0,11674<CR><LF>
ax: 0,08405	 ay: -0,01808	 az: -1,05350 	 ma: 1,05700	 mx: 8,48745	 mn: 0,11674<CR><LF>
ax: 0,07794	 ay: -0,02394	 az: -1,05985 	 ma: 1,06299	 mx: 8,48745	 mn: 0,11674<CR><LF>
ax: 0,08429	 ay: -0,02272	 az: -1,05106 	 ma: 1,05468	 mx: 8,48745	 mn: 0,11674<CR><LF>
ax: 0,09382	 ay: -0,01784	 az: -1,04080 	 ma: 1,04517	 mx: 8,48745	 mn: 0,11674<CR><LF>
ax: 0,10017	 ay: -0,00977	 az: -1,05253 	 ma: 1,05733	 mx: 8,48745	 mn: 0,11674<CR><LF>
ax: 0,10090	 ay: -0,01051	 az: -1,05985 	 ma: 1,06470	 mx: 8,48745	 mn: 0,11674<CR><LF>
ax: 0,09553	 ay: -0,01099	 az: -1,05448 	 ma: 1,05886	 mx: 8,48745	 mn: 0,11674<CR><LF>
ax: 0,08869	 ay: -0,00024	 az: -1,05253 	 ma: 1,05626	 mx: 8,48745	 mn: 0,11674<CR><LF>
ax: 0,08698	 ay: 0,00391	 az: -1,04764 	 ma: 1,05125	 mx: 8,48745	 mn: 0,11674<CR><LF>
ax: 0,07672	 ay: -0,00073	 az: -1,04666 	 ma: 1,04947	 mx: 8,48745	 mn: 0,11674<CR><LF>
ax: 0,10139	 ay: 0,00000	 az: -1,04886 	 ma: 1,05375	 mx: 8,48745	 mn: 0,11674<CR><LF>
ax: 0,10188	 ay: -0,01173	 az: -1,05961 	 ma: 1,06456	 mx: 8,48745	 mn: 0,11674<CR><LF>
ax: 0,10090	 ay: -0,02468	 az: -1,05546 	 ma: 1,06056	 mx: 8,48745	 mn: 0,11674<CR><LF>
ax: 0,10652	 ay: -0,02370	 az: -1,03860 	 ma: 1,04432	 mx: 8,48745	 mn: 0,11674<CR><LF>
ax: 0,10041	 ay: -0,02639	 az: -1,04642 	 ma: 1,05156	 mx: 8,48745	 mn: 0,11674<CR><LF>
ax: 0,09528	 ay: -0,02223	 az: -1,05668 	 ma: 1,06120	 mx: 8,48745	 mn: 0,11674<CR><LF>
ax: 0,10310	 ay: -0,01759	 az: -1,05350 	 ma: 1,05868	 mx: 8,48745	 mn: 0,11674<CR><LF>
ax: 0,10579	 ay: -0,02174	 az: -1,04153 	 ma: 1,04712	 mx: 8,48745	 mn: 0,11674<CR><LF>
ax: 0,11703	 ay: -0,01051	 az: -1,05130 	 ma: 1,05785	 mx: 8,48745	 mn: 0,11674<CR><LF>
ax: 0,11239	 ay: -0,01564	 az: -1,04739 	 ma: 1,05352	 mx: 8,48745	 mn: 0,11674<CR><LF>
ax: 0,09382	 ay: -0,00928	 az: -1,05668 	 ma: 1,06088	 mx: 8,48745	 mn: 0,11674<CR><LF>
ax: 0,09528	 ay: 0,00415	 az: -1,05277 	 ma: 1,05708	 mx: 8,48745	 mn: 0,11674<CR><LF>
ax: 0,08722	 ay: 0,01124	 az: -1,04324 	 ma: 1,04694	 mx: 8,48745	 mn: 0,11674<CR><LF>
ax: 0,09748	 ay: 0,01613	 az: -1,05081 	 ma: 1,05545	 mx: 8,48745	 mn: 0,11674<CR><LF>
ax: 0,10530	 ay: 0,01955	 az: -1,04495 	 ma: 1,05043	 mx: 8,48745	 mn: 0,11674<CR><LF>
ax: 0,11165	 ay: 0,00391	 az: -1,03274 	 ma: 1,03876	 mx: 8,48745	 mn: 0,11674<CR><LF>
ax: 0,10188	 ay: -0,01099	 az: -1,02467 	 ma: 1,02978	 mx: 8,48745	 mn: 0,11674<CR><LF>
ax: 0,09553	 ay: -0,00147	 az: -1,01710 	 ma: 1,02158	 mx: 8,48745	 mn: 0,11674<CR><LF>
ax: 0,08136	 ay: -0,00660	 az: -1,03371 	 ma: 1,03693	 mx: 8,48745	 mn: 0,11674<CR><LF>
ax: 0,08478	 ay: 0,00782	 az: -1,03274 	 ma: 1,03624	 mx: 8,48745	 mn: 0,11674<CR><LF>
ax: 0,10603	 ay: 0,01613	 az: -1,03029 	 ma: 1,03586	 mx: 8,48745	 mn: 0,11674<CR><LF>
ax: 0,10774	 ay: 0,01710	 az: -1,03860 	 ma: 1,04431	 mx: 8,48745	 mn: 0,11674<CR><LF>
ax: 0,11507	 ay: 0,02345	 az: -1,04666 	 ma: 1,05323	 mx: 8,48745	 mn: 0,11674<CR><LF>
ax: 0,12069	 ay: 0,02272	 az: -1,05033 	 ma: 1,05748	 mx: 8,48745	 mn: 0,11674<CR><LF>
ax: 0,12265	 ay: 0,02785	 az: -1,04862 	 ma: 1,05613	 mx: 8,48745	 mn: 0,11674<CR><LF>
ax: 0,10555	 ay: 0,02052	 az: -1,03909 	 ma: 1,04464	 mx: 8,48745	 mn: 0,11674<CR><LF>
ax: 0,10701	 ay: 0,02590	 az: -1,04055 	 ma: 1,04636	 mx: 8,48745	 mn: 0,11674<CR><LF>
ax: 0,11507	 ay: 0,02321	 az: -1,04251 	 ma: 1,04910	 mx: 8,48745	 mn: 0,11674<CR><LF>
ax: 0,11385	 ay: 0,00757	 az: -1,03762 	 ma: 1,04388	 mx: 8,48745	 mn: 0,11674<CR><LF>
ax: 0,11776	 ay: -0,00171	 az: -1,03469 	 ma: 1,04137	 mx: 8,48745	 mn: 0,11674<CR><LF>
ax: 0,12631	 ay: 0,00000	 az: -1,05766 	 ma: 1,06517	 mx: 8,48745	 mn: 0,11674<CR><LF>
ax: 0,12045	 ay: -0,00684	 az: -1,03542 	 ma: 1,04243	 mx: 8,48745	 mn: 0,11674<CR><LF>
ax: 0,11776	 ay: -0,00391	 az: -1,04837 	 ma: 1,05497	 mx: 8,48745	 mn: 0,11674<CR><LF>
ax: 0,10774	 ay: -0,01881	 az: -1,04691 	 ma: 1,05260	 mx: 8,48745	 mn: 0,11674<CR><LF>
ax: 0,11214	 ay: -0,01906	 az: -1,03713 	 ma: 1,04335	 mx: 8,48745	 mn: 0,11674<CR><LF>
ax: 0,10848	 ay: -0,00611	 az: -1,03689 	 ma: 1,04257	 mx: 8,48745	 mn: 0,11674<CR><LF>
ax: 0,09919	 ay: -0,01148	 az: -1,05106 	 ma: 1,05579	 mx: 8,48745	 mn: 0,11674<CR><LF>
ax: 0,10286	 ay: -0,00806	 az: -1,05228 	 ma: 1,05733	 mx: 8,48745	 mn: 0,11674<CR><LF>
ax: 0,11434	 ay: -0,00244	 az: -1,06059 	 ma: 1,06674	 mx: 8,48745	 mn: 0,11674<CR><LF>
ax: 0,12387	 ay: -0,00880	 az: -1,04129 	 ma: 1,04867	 mx: 8,48745	 mn: 0,11674<CR><LF>
ax: 0,13438	 ay: -0,00586	 az: -1,05033 	 ma: 1,05890	 mx: 8,48745	 mn: 0,11674<CR><LF>
ax: 0,13389	 ay: -0,00244	 az: -1,05350 	 ma: 1,06198	 mx: 8,48745	 mn: 0,11674<CR><LF>
ax: 0,12509	 ay: 0,00000	 az: -1,04129 	 ma: 1,04877	 mx: 8,48745	 mn: 0,11674<CR><LF>
ax: 0,13169	 ay: 0,00244	 az: -1,04446 	 ma: 1,05273	 mx: 8,48745	 mn: 0,11674<CR><LF>
ax: 0,13315	 ay: 0,00269	 az: -1,03420 	 ma: 1,04274	 mx: 8,48745	 mn: 0,11674<CR><LF>
ax: 0,13657	 ay: 0,01075	 az: -1,04544 	 ma: 1,05438	 mx: 8,48745	 mn: 0,11674<CR><LF>
ax: 0,13560	 ay: 0,01148	 az: -1,05057 	 ma: 1,05935	 mx: 8,48745	 mn: 0,11674<CR><LF>
ax: 0,12924	 ay: 0,00269	 az: -1,05277 	 ma: 1,06068	 mx: 8,48745	 mn: 0,11674<CR><LF>
ax: 0,13364	 ay: -0,00073	 az: -1,04055 	 ma: 1,04910	 mx: 8,48745	 mn: 0,11674<CR><LF>
ax: 0,14268	 ay: -0,01344	 az: -1,04959 	 ma: 1,05933	 mx: 8,48745	 mn: 0,11674<CR><LF>
ax: 0,13682	 ay: -0,00440	 az: -1,04984 	 ma: 1,05872	 mx: 8,48745	 mn: 0,11674<CR><LF>
ax: 0,12363	 ay: -0,00269	 az: -1,04739 	 ma: 1,05467	 mx: 8,48745	 mn: 0,11674<CR><LF>
ax: 0,13413	 ay: -0,00024	 az: -1,05253 	 ma: 1,06104	 mx: 8,48745	 mn: 0,11674<CR><LF>
ax: 0,12460	 ay: -0,00293	 az: -1,06523 	 ma: 1,07250	 mx: 8,48745	 mn: 0,11674<CR><LF>
ax: 0,12827	 ay: -0,00147	 az: -1,04691 	 ma: 1,05474	 mx: 8,48745	 mn: 0,11674<CR><LF>
ax: 0,12827	 ay: -0,00073	 az: -1,05668 	 ma: 1,06444	 mx: 8,48745	 mn: 0,11674<CR><LF>
ax: 0,13169	 ay: 0,01002	 az: -1,04959 	 ma: 1,05787	 mx: 8,48745	 mn: 0,11674<CR><LF>
ax: 0,13120	 ay: 0,01784	 az: -1,04275 	 ma: 1,05113	 mx: 8,48745	 mn: 0,11674<CR><LF>
ax: 0,11996	 ay: 0,01466	 az: -1,03982 	 ma: 1,04682	 mx: 8,48745	 mn: 0,11674<CR><LF>
ax: 0,11849	 ay: 0,01564	 az: -1,03225 	 ma: 1,03914	 mx: 8,48745	 mn: 0,11674<CR><LF>
ax: 0,11288	 ay: 0,01270	 az: -1,03029 	 ma: 1,03653	 mx: 8,48745	 mn: 0,11674<CR><LF>
ax: 0,12240	 ay: 0,01002	 az: -1,02858 	 ma: 1,03589	 mx: 8,48745	 mn: 0,11674<CR><LF>
ax: 0,11336	 ay: -0,00171	 az: -1,05253 	 ma: 1,05861	 mx: 8,48745	 mn: 0,11674<CR><LF>
ax: 0,12143	 ay: -0,00464	 az: -1,03982 	 ma: 1,04690	 mx: 8,48745	 mn: 0,11674<CR><LF>
ax: 0,11727	 ay: -0,00415	 az: -1,03371 	 ma: 1,04035	 mx: 8,48745	 mn: 0,11674<CR><LF>
ax: 0,11288	 ay: 0,00489	 az: -1,03469 	 ma: 1,04084	 mx: 8,48745	 mn: 0,11674<CR><LF>
ax: 0,10359	 ay: 0,00855	 az: -1,04446 	 ma: 1,04962	 mx: 8,48745	 mn: 0,11674<CR><LF>
ax: 0,11703	 ay: 0,01173	 az: -1,04764 	 ma: 1,05422	 mx: 8,48745	 mn: 0,11674<CR><LF>
ax: 0,12216	 ay: 0,01564	 az: -1,04910 	 ma: 1,05631	 mx: 8,48745	 mn: 0,11674<CR><LF>
ax: 0,12192	 ay: 0,01955	 az: -1,04593 	 ma: 1,05319	 mx: 8,48745	 mn: 0,11674<CR><LF>
ax: 0,12509	 ay: 0,01759	 az: -1,04666 	 ma: 1,05426	 mx: 8,48745	 mn: 0,11674<CR><LF>
ax: 0,12338	 ay: 0,02419	 az: -1,04080 	 ma: 1,04836	 mx: 8,48745	 mn: 0,11674<CR><LF>
ax: 0,12069	 ay: 0,02150	 az: -1,02589 	 ma: 1,03319	 mx: 8,48745	 mn: 0,11674<CR><LF>
ax: 0,12705	 ay: 0,01759	 az: -1,03298 	 ma: 1,04091	 mx: 8,48745	 mn: 0,11674<CR><LF>
ax: 0,11825	 ay: 0,02077	 az: -1,04886 	 ma: 1,05571	 mx: 8,48745	 mn: 0,11674<CR><LF>
ax: 0,12851	 ay: 0,01881	 az: -1,04055 	 ma: 1,04863	 mx: 8,48745	 mn: 0,11674<CR><LF>
ax: 0,13413	 ay: 0,01393	 az: -1,04226 	 ma: 1,05095	 mx: 8,48745	 mn: 0,11674<CR><LF>
ax: 0,13486	 ay: 0,01857	 az: -1,01905 	 ma: 1,02811	 mx: 8,48745	 mn: 0,11674<CR><LF>
ax: 0,12411	 ay: 0,01930	 az: -1,03103 	 ma: 1,03865	 mx: 8,48745	 mn: 0,11674<CR><LF>
ax: 0,12314	 ay: 0,02126	 az: -1,04520 	 ma: 1,05264	 mx: 8,48745	 mn: 0,11674<CR><LF>
ax: 0,12631	 ay: 0,02981	 az: -1,04886 	 ma: 1,05686	 mx: 8,48745	 mn: 0,11674<CR><LF>
ax: 0,11239	 ay: 0,03567	 az: -1,02858 	 ma: 1,03532	 mx: 8,48745	 mn: 0,11674<CR><LF>
ax: 0,12045	 ay: 0,04300	 az: -1,03664 	 ma: 1,04450	 mx: 8,48745	 mn: 0,11674<CR><LF>
ax: 0,10823	 ay: 0,04593	 az: -1,04129 	 ma: 1,04790	 mx: 8,48745	 mn: 0,11674<CR><LF>
ax: 0,12338	 ay: 0,03836	 az: -1,04495 	 ma: 1,05291	 mx: 8,48745	 mn: 0,11674<CR><LF>
ax: 0,12118	 ay: 0,02077	 az: -1,04520 	 ma: 1,05240	 mx: 8,48745	 mn: 0,11674<CR><LF>
ax: 0,12680	 ay: 0,01270	 az: -1,04349 	 ma: 1,05124	 mx: 8,48745	 mn: 0,11674<CR><LF>
ax: 0,12363	 ay: 0,00709	 az: -1,04104 	 ma: 1,04838	 mx: 8,48745	 mn: 0,11674<CR><LF>
ax: 0,12876	 ay: 0,00904	 az: -1,04446 	 ma: 1,05241	 mx: 8,48745	 mn: 0,11674<CR><LF>
ax: 0,13047	 ay: 0,00757	 az: -1,04642 	 ma: 1,05455	 mx: 8,48745	 mn: 0,11674<CR><LF>
ax: 0,12802	 ay: 0,01124	 az: -1,03591 	 ma: 1,04385	 mx: 8,48745	 mn: 0,11674<CR><LF>
ax: 0,11923	 ay: 0,01515	 az: -1,04764 	 ma: 1,05451	 mx: 8,48745	 mn: 0,11674<CR><LF>
ax: 0,14170	 ay: 0,03249	 az: -1,04422 	 ma: 1,05429	 mx: 8,48745	 mn: 0,11674<CR><LF>
ax: 0,14219	 ay: 0,02907	 az: -1,04910 	 ma: 1,05910	 mx: 8,48745	 mn: 0,11674<CR><LF>
ax: 0,13169	 ay: 0,02712	 az: -1,05937 	 ma: 1,06786	 mx: 8,48745	 mn: 0,11674<CR><LF>
ax: 0,13315	 ay: 0,02150	 az: -1,05375 	 ma: 1,06234	 mx: 8,48745	 mn: 0,11674<CR><LF>
ax: 0,12924	 ay: 0,00171	 az: -1,05057 	 ma: 1,05849	 mx: 8,48745	 mn: 0,11674<CR><LF>
ax: 0,13291	 ay: 0,00318	 az: -1,03909 	 ma: 1,04756	 mx: 8,48745	 mn: 0,11674<CR><LF>
ax: 0,12314	 ay: 0,00928	 az: -1,05301 	 ma: 1,06023	 mx: 8,48745	 mn: 0,11674<CR><LF>
ax: 0,11507	 ay: 0,02468	 az: -1,04251 	 ma: 1,04913	 mx: 8,48745	 mn: 0,11674<CR><LF>
ax: 0,11190	 ay: 0,02907	 az: -1,04349 	 ma: 1,04987	 mx: 8,48745	 mn: 0,11674<CR><LF>
ax: 0,11556	 ay: 0,02297	 az: -1,04813 	 ma: 1,05473	 mx: 8,48745	 mn: 0,11674<CR><LF>
ax: 0,12558	 ay: 0,02761	 az: -1,03640 	 ma: 1,04435	 mx: 8,48745	 mn: 0,11674<CR><LF>
ax: 0,12753	 ay: 0,03811	 az: -1,03420 	 ma: 1,04273	 mx: 8,48745	 mn: 0,11674<CR><LF>
ax: 0,12973	 ay: 0,03860	 az: -1,04959 	 ma: 1,05828	 mx: 8,48745	 mn: 0,11674<CR><LF>
ax: 0,12216	 ay: 0,03738	 az: -1,03078 	 ma: 1,03867	 mx: 8,48745	 mn: 0,11674<CR><LF>
ax: 0,10872	 ay: 0,03787	 az: -1,03518 	 ma: 1,04156	 mx: 8,48745	 mn: 0,11674<CR><LF>
ax: 0,11727	 ay: 0,05473	 az: -1,03787 	 ma: 1,04590	 mx: 8,48745	 mn: 0,11674<CR><LF>
ax: 0,11288	 ay: 0,04569	 az: -1,05008 	 ma: 1,05712	 mx: 8,48745	 mn: 0,11674<CR><LF>
ax: 0,11507	 ay: 0,04960	 az: -1,04837 	 ma: 1,05583	 mx: 8,48745	 mn: 0,11674<CR><LF>
ax: 0,11410	 ay: 0,03640	 az: -1,06450 	 ma: 1,07121	 mx: 8,48745	 mn: 0,11674<CR><LF>
ax: 0,12656	 ay: 0,03005	 az: -1,06889 	 ma: 1,07678	 mx: 8,48745	 mn: 0,11674<CR><LF>
ax: 0,10701	 ay: 0,01099	 az: -1,04593 	 ma: 1,05145	 mx: 8,48745	 mn: 0,11674<CR><LF>
ax: 0,09797	 ay: 0,01417	 az: -1,04520 	 ma: 1,04987	 mx: 8,48745	 mn: 0,11674<CR><LF>
ax: 0,09699	 ay: 0,02345	 az: -1,04593 	 ma: 1,05068	 mx: 8,48745	 mn: 0,11674<CR><LF>
ax: 0,11190	 ay: 0,03078	 az: -1,04984 	 ma: 1,05623	 mx: 8,48745	 mn: 0,11674<CR><LF>
ax: 0,10921	 ay: 0,02541	 az: -1,04104 	 ma: 1,04706	 mx: 8,48745	 mn: 0,11674<CR><LF>
ax: 0,10799	 ay: 0,03323	 az: -1,03884 	 ma: 1,04497	 mx: 8,48745	 mn: 0,11674<CR><LF>
ax: 0,11825	 ay: 0,04422	 az: -1,04055 	 ma: 1,04818	 mx: 8,48745	 mn: 0,11674<CR><LF>
ax: 0,10726	 ay: 0,03469	 az: -1,04715 	 ma: 1,05320	 mx: 8,48745	 mn: 0,11674<CR><LF>
ax: 0,10921	 ay: 0,03103	 az: -1,04006 	 ma: 1,04624	 mx: 8,48745	 mn: 0,11674<CR><LF>
ax: 0,09846	 ay: 0,03445	 az: -1,01808 	 ma: 1,02341	 mx: 8,48745	 mn: 0,11674<CR><LF>
ax: 0,08991	 ay: 0,03347	 az: -1,02199 	 ma: 1,02648	 mx: 8,48745	 mn: 0,11674<CR><LF>
ax: 0,09773	 ay: 0,04300	 az: -1,03151 	 ma: 1,03702	 mx: 8,48745	 mn: 0,11674<CR><LF>
ax: 0,10506	 ay: 0,05546	 az: -1,04031 	 ma: 1,04707	 mx: 8,48745	 mn: 0,11674<CR><LF>
ax: 0,11263	 ay: 0,04520	 az: -1,04324 	 ma: 1,05028	 mx: 8,48745	 mn: 0,11674<CR><LF>
ax: 0,13218	 ay: 0,04276	 az: -1,04910 	 ma: 1,05826	 mx: 8,48745	 mn: 0,11674<CR><LF>
ax: 0,12387	 ay: 0,02468	 az: -1,04984 	 ma: 1,05741	 mx: 8,48745	 mn: 0,11674<CR><LF>
ax: 0,11410	 ay: 0,02761	 az: -1,02638 	 ma: 1,03307	 mx: 8,48745	 mn: 0,11674<CR><LF>
ax: 0,13242	 ay: 0,04300	 az: -1,00586 	 ma: 1,01545	 mx: 8,48745	 mn: 0,11674<CR><LF>
ax: 0,12167	 ay: 0,05106	 az: -1,03640 	 ma: 1,04477	 mx: 8,48745	 mn: 0,11674<CR><LF>
ax: 0,10774	 ay: 0,04960	 az: -1,06792 	 ma: 1,07448	 mx: 8,48745	 mn: 0,11674<CR><LF>
ax: 0,09211	 ay: 0,04691	 az: -1,06254 	 ma: 1,06756	 mx: 8,48745	 mn: 0,11674<CR><LF>
ax: 0,11923	 ay: 0,05546	 az: -1,04984 	 ma: 1,05804	 mx: 8,48745	 mn: 0,11674<CR><LF>
ax: 0,13413	 ay: 0,05522	 az: -1,07769 	 ma: 1,08741	 mx: 8,48745	 mn: 0,11674<CR><LF>
ax: 0,13389	 ay: 0,03274	 az: -1,09528 	 ma: 1,10392	 mx: 8,48745	 mn: 0,11674<CR><LF>
ax: 0,13804	 ay: 0,04251	 az: -1,07647 	 ma: 1,08612	 mx: 8,48745	 mn: 0,11674<CR><LF>
ax: 0,14879	 ay: 0,02516	 az: -1,05595 	 ma: 1,06667	 mx: 8,48745	 mn: 0,11674<CR><LF>
ax: 0,16785	 ay: 0,03469	 az: -1,04764 	 ma: 1,06157	 mx: 8,48745	 mn: 0,11674<CR><LF>
ax: 0,19497	 ay: 0,05399	 az: -1,05912 	 ma: 1,07827	 mx: 8,48745	 mn: 0,11674<CR><LF>
ax: 0,18861	 ay: 0,06523	 az: -1,05350 	 ma: 1,07224	 mx: 8,48745	 mn: 0,11674<CR><LF>
ax: 0,16638	 ay: 0,07183	 az: -1,05033 	 ma: 1,06585	 mx: 8,48745	 mn: 0,11674<CR><LF>
ax: 0,19081	 ay: 0,14415	 az: -1,02907 	 ma: 1,05649	 mx: 8,48745	 mn: 0,11674<CR><LF>
ax: 0,20181	 ay: 0,16272	 az: -1,00586 	 ma: 1,03873	 mx: 8,48745	 mn: 0,11674<CR><LF>
ax: 0,17200	 ay: 0,17689	 az: -1,00342 	 ma: 1,03330	 mx: 8,48745	 mn: 0,11674<CR><LF>
ax: 0,11947	 ay: 0,22331	 az: -1,03933 	 ma: 1,06974	 mx: 8,48745	 mn: 0,11674<CR><LF>
ax: 0,06645	 ay: 0,40801	 az: -0,69851 	 ma: 0,81167	 mx: 8,48745	 mn: 0,11674<CR><LF>
ax: 0,13828	 ay: 0,25751	 az: -0,77571 	 ma: 0,82895	 mx: 8,48745	 mn: 0,11674<CR><LF>
ax: 0,20547	 ay: 0,18886	 az: -1,08013 	 ma: 1,11560	 mx: 8,48745	 mn: 0,11674<CR><LF>
ax: 0,21158	 ay: 0,08527	 az: -1,08673 	 ma: 1,11041	 mx: 8,48745	 mn: 0,11674<CR><LF>
ax: 0,21671	 ay: 0,00880	 az: -1,14683 	 ma: 1,16716	 mx: 8,48745	 mn: 0,11674<CR><LF>
ax: 0,21280	 ay: 0,02052	 az: -0,98485 	 ma: 1,00779	 mx: 8,48745	 mn: 0,11674<CR><LF>
ax: 0,30076	 ay: 0,08209	 az: -0,96310 	 ma: 1,01231	 mx: 8,48745	 mn: 0,11674<CR><LF>
ax: 0,16687	 ay: 0,15221	 az: -1,08429 	 ma: 1,10756	 mx: 8,48745	 mn: 0,11674<CR><LF>
ax: 0,17615	 ay: 0,22575	 az: -0,90838 	 ma: 0,95244	 mx: 8,48745	 mn: 0,11674<CR><LF>
ax: 0,17420	 ay: 0,17591	 az: -1,03127 	 ma: 1,06057	 mx: 8,48745	 mn: 0,11674<CR><LF>
ax: 0,18104	 ay: 0,14439	 az: -1,03689 	 ma: 1,06243	 mx: 8,48745	 mn: 0,11674<CR><LF>
ax: 0,20669	 ay: 0,15514	 az: -1,00855 	 ma: 1,04113	 mx: 8,48745	 mn: 0,11674<CR><LF>
ax: 0,27584	 ay: 0,15856	 az: -0,99193 	 ma: 1,04171	 mx: 8,48745	 mn: 0,11674<CR><LF>
ax: 0,21671	 ay: 0,14537	 az: -1,06279 	 ma: 1,09435	 mx: 8,48745	 mn: 0,11674<CR><LF>
ax: 0,26044	 ay: 0,18861	 az: -1,04031 	 ma: 1,08888	 mx: 8,48745	 mn: 0,11674<CR><LF>
ax: -0,03152	 ay: 0,02126	 az: -1,16247 	 ma: 1,16309	 mx: 8,48745	 mn: 0,11674<CR><LF>
ax: 0,17640	 ay: 0,12631	 az: -1,03762 	 ma: 1,06006	 mx: 8,48745	 mn: 0,11674<CR><LF>
ax: 0,29880	 ay: 0,22184	 az: -0,93745 	 ma: 1,00862	 mx: 8,48745	 mn: 0,11674<CR><LF>
ax: 0,21256	 ay: 0,20083	 az: -1,00122 	 ma: 1,04305	 mx: 8,48745	 mn: 0,11674<CR><LF>
ax: 0,21280	 ay: 0,16858	 az: -1,03396 	 ma: 1,06900	 mx: 8,48745	 mn: 0,11674<CR><LF>
ax: 0,28170	 ay: 0,17395	 az: -1,01930 	 ma: 1,07172	 mx: 8,48745	 mn: 0,11674<CR><LF>
ax: 0,13877	 ay: 0,14024	 az: -0,86391 	 ma: 0,88615	 mx: 8,48745	 mn: 0,11674<CR><LF>
ax: 0,13828	 ay: 0,17982	 az: -1,06108 	 ma: 1,08505	 mx: 8,48745	 mn: 0,11674<CR><LF>
ax: 0,11898	 ay: 0,21476	 az: -1,13950 	 ma: 1,16565	 mx: 8,48745	 mn: 0,11674<CR><LF>
ax: 0,12607	 ay: 0,16736	 az: -1,09553 	 ma: 1,11538	 mx: 8,48745	 mn: 0,11674<CR><LF>
ax: 0,13291	 ay: 0,13682	 az: -1,06303 	 ma: 1,08001	 mx: 8,48745	 mn: 0,11674<CR><LF>
ax: 0,13389	 ay: 0,15978	 az: -1,09381 	 ma: 1,11350	 mx: 8,48745	 mn: 0,11674<CR><LF>
ax: 0,16345	 ay: 0,20669	 az: -1,12631 	 ma: 1,15672	 mx: 8,48745	 mn: 0,11674<CR><LF>
ax: 0,12436	 ay: 0,21402	 az: -1,13413 	 ma: 1,16083	 mx: 8,48745	 mn: 0,11674<CR><LF>
ax: 0,05741	 ay: 0,22697	 az: -1,11776 	 ma: 1,14201	 mx: 8,48745	 mn: 0,11674<CR><LF>
ax: -0,02736	 ay: 0,21720	 az: -1,05448 	 ma: 1,07696	 mx: 8,48745	 mn: 0,11674<CR><LF>
ax: -0,00464	 ay: 0,17884	 az: -0,98803 	 ma: 1,00409	 mx: 8,48745	 mn: 0,11674<CR><LF>
ax: 0,07036	 ay: 0,19326	 az: -0,98094 	 ma: 1,00227	 mx: 8,48745	 mn: 0,11674<CR><LF>
ax: 0,09699	 ay: 0,22282	 az: -0,96946 	 ma: 0,99945	 mx: 8,48745	 mn: 0,11674<CR><LF>
ax: 0,11727	 ay: 0,19668	 az: -0,95260 	 ma: 0,97973	 mx: 8,48745	 mn: 0,11674<CR><LF>
ax: 0,15270	 ay: 0,20840	 az: -0,96921 	 ma: 1,00306	 mx: 8,48745	 mn: 0,11674<CR><LF>
ax: 0,18422	 ay: 0,16516	 az: -0,92548 	 ma: 0,95798	 mx: 8,48745	 mn: 0,11674<CR><LF>
ax: 0,13657	 ay: 0,09528	 az: -0,89176 	 ma: 0,90718	 mx: 8,48745	 mn: 0,11674<CR><LF>
ax: 0,23137	 ay: 0,08673	 az: -0,93110 	 ma: 0,96333	 mx: 8,48745	 mn: 0,11674<CR><LF>
ax: 0,34693	 ay: 0,12680	 az: -0,97068 	 ma: 1,03858	 mx: 8,48745	 mn: 0,11674<CR><LF>
ax: 0,38920	 ay: 0,12338	 az: -0,99193 	 ma: 1,07268	 mx: 8,48745	 mn: 0,11674<CR><LF>
ax: 0,37527	 ay: 0,12118	 az: -0,98192 	 ma: 1,05815	 mx: 8,48745	 mn: 0,11674<CR><LF>
ax: 0,31737	 ay: 0,09773	 az: -1,00953 	 ma: 1,06274	 mx: 8,48745	 mn: 0,11674<CR><LF>
ax: 0,29807	 ay: 0,13218	 az: -1,06034 	 ma: 1,10934	 mx: 8,48745	 mn: 0,11674<CR><LF>
ax: 0,28976	 ay: 0,13120	 az: -1,09210 	 ma: 1,13748	 mx: 8,48745	 mn: 0,11674<CR><LF>	
ax: 0,34473	 ay: 0,12363	 az: -1,08771 	 ma: 1,14771	 mx: 8,48745	 mn: 0,11674<CR><LF>
ax: 0,34718	 ay: 0,10139	 az: -1,07427 	 ma: 1,13352	 mx: 8,48745	 mn: 0,11674<CR><LF>
ax: 0,33398	 ay: 0,12289	 az: -1,07109 	 ma: 1,12867	 mx: 8,48745	 mn: 0,11674<CR><LF>
ax: 0,31981	 ay: 0,14366	 az: -1,08478 	 ma: 1,14002	 mx: 8,48745	 mn: 0,11674<CR><LF>
ax: 0,29611	 ay: 0,14928	 az: -1,09675 	 ma: 1,14578	 mx: 8,48745	 mn: 0,11674<CR><LF>
ax: 0,27193	 ay: 0,15294	 az: -1,04055 	 ma: 1,08632	 mx: 8,48745	 mn: 0,11674<CR><LF>
ax: 0,26557	 ay: 0,13511	 az: -1,06474 	 ma: 1,10565	 mx: 8,48745	 mn: 0,11674<CR><LF>
ax: 0,24921	 ay: 0,16687	 az: -1,06938 	 ma: 1,11064	 mx: 8,48745	 mn: 0,11674<CR><LF>
ax: 0,21842	 ay: 0,17102	 az: -1,06450 	 ma: 1,10005	 mx: 8,48745	 mn: 0,11674<CR><LF>
ax: 0,21940	 ay: 0,19936	 az: -1,03884 	 ma: 1,08031	 mx: 8,48745	 mn: 0,11674<CR><LF>
ax: 0,07378	 ay: -0,04471	 az: -1,04910 	 ma: 1,05265	 mx: 8,48745	 mn: 0,11674<CR><LF>
