ax: 0,06548	 ay: -0,05570	 az: -1,04764 	 ma: 1,05116	 mx: 1,05116	 mn: 1,05116
ax: 0,06597	 ay: -0,06230	 az: -1,03982 	 ma: 1,04377	 mx: 1,05116	 mn: 1,04377
ax: 0,06401	 ay: -0,05790	 az: -1,03738 	 ma: 1,04096	 mx: 1,05116	 mn: 1,04096
ax: 0,06548	 ay: -0,05546	 az: -1,04617 	 ma: 1,04969	 mx: 1,05116	 mn: 1,04096
ax: 0,06499	 ay: -0,05815	 az: -1,04739 	 ma: 1,05102	 mx: 1,05116	 mn: 1,04096
ax: 0,06450	 ay: -0,05253	 az: -1,04373 	 ma: 1,04704	 mx: 1,05116	 mn: 1,04096
ax: 0,06230	 ay: -0,05570	 az: -1,04642 	 ma: 1,04975	 mx: 1,05116	 mn: 1,04096
ax: 0,06523	 ay: -0,05717	 az: -1,04666 	 ma: 1,05025	 mx: 1,05116	 mn: 1,04096
ax: 0,06523	 ay: -0,06108	 az: -1,04666 	 ma: 1,05047	 mx: 1,05116	 mn: 1,04096
ax: 0,06670	 ay: -0,05741	 az: -1,04837 	 ma: 1,05206	 mx: 1,05206	 mn: 1,04096
ax: 0,06597	 ay: -0,05399	 az: -1,04471 	 ma: 1,04818	 mx: 1,05206	 mn: 1,04096
ax: 0,06303	 ay: -0,05375	 az: -1,04691 	 ma: 1,05018	 mx: 1,05206	 mn: 1,04096
ax: 0,06523	 ay: -0,05864	 az: -1,04104 	 ma: 1,04473	 mx: 1,05206	 mn: 1,04096
ax: 0,06450	 ay: -0,05522	 az: -1,03933 	 ma: 1,04279	 mx: 1,05206	 mn: 1,04096
ax: 0,06719	 ay: -0,05693	 az: -1,04715 	 ma: 1,05085	 mx: 1,05206	 mn: 1,04096
ax: 0,06865	 ay: -0,05668	 az: -1,04349 	 ma: 1,04728	 mx: 1,05206	 mn: 1,04096
ax: 0,06694	 ay: -0,05644	 az: -1,04691 	 ma: 1,05056	 mx: 1,05206	 mn: 1,04096
ax: 0,06426	 ay: -0,05913	 az: -1,04153 	 ma: 1,04518	 mx: 1,05206	 mn: 1,04096
ax: 0,06499	 ay: -0,05717	 az: -1,04739 	 ma: 1,05096	 mx: 1,05206	 mn: 1,04096
ax: 0,06768	 ay: -0,05717	 az: -1,04373 	 ma: 1,04748	 mx: 1,05206	 mn: 1,04096
ax: 0,06352	 ay: -0,05595	 az: -1,03762 	 ma: 1,04107	 mx: 1,05206	 mn: 1,04096
ax: 0,06572	 ay: -0,05522	 az: -1,03933 	 ma: 1,04287	 mx: 1,05206	 mn: 1,04096
ax: 0,06621	 ay: -0,06035	 az: -1,04373 	 ma: 1,04757	 mx: 1,05206	 mn: 1,04096
ax: 0,06768	 ay: -0,05546	 az: -1,04202 	 ma: 1,04569	 mx: 1,05206	 mn: 1,04096
ax: 0,06206	 ay: -0,05668	 az: -1,04300 	 ma: 1,04638	 mx: 1,05206	 mn: 1,04096
ax: 0,06768	 ay: -0,05546	 az: -1,04129 	 ma: 1,04496	 mx: 1,05206	 mn: 1,04096
ax: 0,06572	 ay: -0,05693	 az: -1,04862 	 ma: 1,05221	 mx: 1,05221	 mn: 1,04096
ax: 0,06426	 ay: -0,05570	 az: -1,04617 	 ma: 1,04962	 mx: 1,05221	 mn: 1,04096
ax: 0,06450	 ay: -0,05546	 az: -1,04544 	 ma: 1,04890	 mx: 1,05221	 mn: 1,04096
ax: 0,06255	 ay: -0,05815	 az: -1,04764 	 ma: 1,05111	 mx: 1,05221	 mn: 1,04096
ax: 0,06670	 ay: -0,05570	 az: -1,04324 	 ma: 1,04685	 mx: 1,05221	 mn: 1,04096
ax: 0,06426	 ay: -0,05448	 az: -1,05057 	 ma: 1,05394	 mx: 1,05394	 mn: 1,04096
ax: 0,06328	 ay: -0,05693	 az: -1,04471 	 ma: 1,04817	 mx: 1,05394	 mn: 1,04096
ax: 0,06572	 ay: -0,05399	 az: -1,04422 	 ma: 1,04768	 mx: 1,05394	 mn: 1,04096
ax: 0,06474	 ay: -0,05668	 az: -1,05155 	 ma: 1,05506	 mx: 1,05506	 mn: 1,04096
ax: 0,06279	 ay: -0,05570	 az: -1,04642 	 ma: 1,04978	 mx: 1,05506	 mn: 1,04096
ax: 0,06474	 ay: -0,06157	 az: -1,04520 	 ma: 1,04901	 mx: 1,05506	 mn: 1,04096
ax: 0,06572	 ay: -0,05693	 az: -1,04471 	 ma: 1,04832	 mx: 1,05506	 mn: 1,04096
ax: 0,06352	 ay: -0,05546	 az: -1,04080 	 ma: 1,04421	 mx: 1,05506	 mn: 1,04096
ax: 0,06474	 ay: -0,05644	 az: -1,05228 	 ma: 1,05578	 mx: 1,05578	 mn: 1,04096
ax: 0,06621	 ay: -0,05717	 az: -1,04495 	 ma: 1,04861	 mx: 1,05578	 mn: 1,04096
ax: 0,06841	 ay: -0,06010	 az: -1,05301 	 ma: 1,05694	 mx: 1,05694	 mn: 1,04096
ax: 0,06816	 ay: -0,05961	 az: -1,04813 	 ma: 1,05203	 mx: 1,05694	 mn: 1,04096
ax: 0,06450	 ay: -0,05815	 az: -1,04300 	 ma: 1,04661	 mx: 1,05694	 mn: 1,04096
ax: 0,06621	 ay: -0,05937	 az: -1,03835 	 ma: 1,04216	 mx: 1,05694	 mn: 1,04096
ax: 0,06572	 ay: -0,05253	 az: -1,04715 	 ma: 1,05052	 mx: 1,05694	 mn: 1,04096
ax: 0,06670	 ay: -0,05766	 az: -1,05277 	 ma: 1,05645	 mx: 1,05694	 mn: 1,04096
ax: 0,06328	 ay: -0,05546	 az: -1,04397 	 ma: 1,04736	 mx: 1,05694	 mn: 1,04096
ax: 0,06450	 ay: -0,05790	 az: -1,04837 	 ma: 1,05195	 mx: 1,05694	 mn: 1,04096
ax: 0,06694	 ay: -0,05448	 az: -1,05033 	 ma: 1,05387	 mx: 1,05694	 mn: 1,04096
ax: 0,06132	 ay: -0,05815	 az: -1,04984 	 ma: 1,05323	 mx: 1,05694	 mn: 1,04096
ax: 0,06035	 ay: -0,06303	 az: -1,04544 	 ma: 1,04908	 mx: 1,05694	 mn: 1,04096
ax: 0,06255	 ay: -0,05668	 az: -1,04691 	 ma: 1,05030	 mx: 1,05694	 mn: 1,04096
ax: 0,06474	 ay: -0,05741	 az: -1,04129 	 ma: 1,04488	 mx: 1,05694	 mn: 1,04096
ax: 0,06792	 ay: -0,05522	 az: -1,04471 	 ma: 1,04837	 mx: 1,05694	 mn: 1,04096
ax: 0,06181	 ay: -0,05644	 az: -1,04544 	 ma: 1,04879	 mx: 1,05694	 mn: 1,04096
ax: 0,06621	 ay: -0,05790	 az: -1,05057 	 ma: 1,05425	 mx: 1,05694	 mn: 1,04096
ax: 0,06279	 ay: -0,05937	 az: -1,04324 	 ma: 1,04681	 mx: 1,05694	 mn: 1,04096
ax: 0,06865	 ay: -0,05228	 az: -1,03909 	 ma: 1,04266	 mx: 1,05694	 mn: 1,04096
ax: 0,06474	 ay: -0,05913	 az: -1,04226 	 ma: 1,04595	 mx: 1,05694	 mn: 1,04096
ax: 0,06499	 ay: -0,05766	 az: -1,05008 	 ma: 1,05367	 mx: 1,05694	 mn: 1,04096
ax: 0,06768	 ay: -0,05375	 az: -1,04129 	 ma: 1,04487	 mx: 1,05694	 mn: 1,04096
ax: 0,06645	 ay: -0,05693	 az: -1,04568 	 ma: 1,04934	 mx: 1,05694	 mn: 1,04096
ax: 0,06206	 ay: -0,05864	 az: -1,04446 	 ma: 1,04795	 mx: 1,05694	 mn: 1,04096
ax: 0,06743	 ay: -0,05888	 az: -1,04129 	 ma: 1,04513	 mx: 1,05694	 mn: 1,04096
ax: 0,06694	 ay: -0,05595	 az: -1,03982 	 ma: 1,04347	 mx: 1,05694	 mn: 1,04096
ax: 0,06645	 ay: -0,05619	 az: -1,04104 	 ma: 1,04467	 mx: 1,05694	 mn: 1,04096
ax: 0,06743	 ay: -0,05839	 az: -1,04568 	 ma: 1,04948	 mx: 1,05694	 mn: 1,04096
ax: 0,06523	 ay: -0,05522	 az: -1,04202 	 ma: 1,04552	 mx: 1,05694	 mn: 1,04096
ax: 0,06303	 ay: -0,05351	 az: -1,04080 	 ma: 1,04408	 mx: 1,05694	 mn: 1,04096
ax: 0,06377	 ay: -0,05473	 az: -1,04935 	 ma: 1,05271	 mx: 1,05694	 mn: 1,04096
ax: 0,06474	 ay: -0,05595	 az: -1,05081 	 ma: 1,05429	 mx: 1,05694	 mn: 1,04096
ax: 0,06743	 ay: -0,05522	 az: -1,04251 	 ma: 1,04614	 mx: 1,05694	 mn: 1,04096
ax: 0,06572	 ay: -0,05839	 az: -1,04642 	 ma: 1,05010	 mx: 1,05694	 mn: 1,04096
ax: 0,06694	 ay: -0,05839	 az: -1,04226 	 ma: 1,04604	 mx: 1,05694	 mn: 1,04096
ax: 0,06988	 ay: -0,05717	 az: -1,04959 	 ma: 1,05347	 mx: 1,05694	 mn: 1,04096
ax: 0,06670	 ay: -0,05766	 az: -1,04935 	 ma: 1,05305	 mx: 1,05694	 mn: 1,04096
ax: 0,04080	 ay: -0,05790	 az: -1,05130 	 ma: 1,05369	 mx: 1,05694	 mn: 1,04096
ax: -0,23235	 ay: -0,04007	 az: -1,01270 	 ma: 1,03979	 mx: 1,05694	 mn: 1,03979
ax: 0,47593	 ay: -0,00586	 az: -0,89592 	 ma: 1,01450	 mx: 1,05694	 mn: 1,01450
ax: 0,09944	 ay: -0,13218	 az: -1,17664 	 ma: 1,18821	 mx: 1,18821	 mn: 1,01450
ax: 0,04276	 ay: 0,10384	 az: -1,08868 	 ma: 1,09446	 mx: 1,18821	 mn: 1,01450
ax: 0,22942	 ay: -0,06084	 az: -0,96481 	 ma: 0,99358	 mx: 1,18821	 mn: 0,99358
ax: 0,06352	 ay: -0,12485	 az: -0,92304 	 ma: 0,93360	 mx: 1,18821	 mn: 0,93360
ax: -0,02345	 ay: -0,20669	 az: -1,02370 	 ma: 1,04462	 mx: 1,18821	 mn: 0,93360
ax: 0,10310	 ay: -0,10286	 az: -1,11874 	 ma: 1,12818	 mx: 1,18821	 mn: 0,93360
ax: 0,06597	 ay: -0,07036	 az: -1,29440 	 ma: 1,29799	 mx: 1,29799	 mn: 0,93360
ax: 0,21256	 ay: -0,04447	 az: -1,34766 	 ma: 1,36505	 mx: 1,36505	 mn: 0,93360
ax: 0,23088	 ay: -0,10799	 az: -1,29220 	 ma: 1,31710	 mx: 1,36505	 mn: 0,93360
ax: 0,18886	 ay: -0,14293	 az: -1,24725 	 ma: 1,26954	 mx: 1,36505	 mn: 0,93360
ax: 0,11214	 ay: -0,12924	 az: -1,16833 	 ma: 1,18080	 mx: 1,36505	 mn: 0,93360
ax: 0,18788	 ay: -0,07891	 az: -1,08062 	 ma: 1,09967	 mx: 1,36505	 mn: 0,93360
ax: 0,23577	 ay: -0,10481	 az: -1,34180 	 ma: 1,36638	 mx: 1,36638	 mn: 0,93360
ax: 0,36110	 ay: -0,07330	 az: -1,07085 	 ma: 1,13247	 mx: 1,36638	 mn: 0,93360
ax: 0,29831	 ay: -0,12289	 az: -1,00464 	 ma: 1,05517	 mx: 1,36638	 mn: 0,93360
ax: 0,25996	 ay: -0,03201	 az: -1,08135 	 ma: 1,11262	 mx: 1,36638	 mn: 0,93360
ax: 0,35133	 ay: -0,06010	 az: -1,10432 	 ma: 1,16042	 mx: 1,36638	 mn: 0,93360
ax: 0,46567	 ay: -0,03201	 az: -1,10896 	 ma: 1,20319	 mx: 1,36638	 mn: 0,93360
ax: 0,20694	 ay: -0,09382	 az: -1,21500 	 ma: 1,23606	 mx: 1,36638	 mn: 0,93360
ax: 0,06548	 ay: -0,00953	 az: -1,04178 	 ma: 1,04387	 mx: 1,36638	 mn: 0,93360
ax: 0,08673	 ay: -0,01490	 az: -0,94551 	 ma: 0,94960	 mx: 1,36638	 mn: 0,93360
ax: 0,14610	 ay: 0,02223	 az: -0,91815 	 ma: 0,92997	 mx: 1,36638	 mn: 0,92997
ax: 0,16711	 ay: -0,07036	 az: -0,88517 	 ma: 0,90355	 mx: 1,36638	 mn: 0,90355
ax: 0,18446	 ay: -0,03103	 az: -0,87491 	 ma: 0,89468	 mx: 1,36638	 mn: 0,89468
ax: 0,16907	 ay: 0,05864	 az: -1,01710 	 ma: 1,03272	 mx: 1,36638	 mn: 0,89468
ax: 0,12118	 ay: 0,11459	 az: -1,03664 	 ma: 1,04997	 mx: 1,36638	 mn: 0,89468
ax: 0,08087	 ay: -0,00586	 az: -1,04788 	 ma: 1,05102	 mx: 1,36638	 mn: 0,89468
ax: 0,11214	 ay: -0,05790	 az: -0,93110 	 ma: 0,93961	 mx: 1,36638	 mn: 0,89468
ax: 0,03665	 ay: -0,03494	 az: -0,92988 	 ma: 0,93125	 mx: 1,36638	 mn: 0,89468
ax: 0,05522	 ay: 0,08698	 az: -0,95797 	 ma: 0,96350	 mx: 1,36638	 mn: 0,89468
ax: 0,00195	 ay: 0,06010	 az: -1,02003 	 ma: 1,02180	 mx: 1,36638	 mn: 0,89468
ax: -0,03249	 ay: 0,03836	 az: -0,98729 	 ma: 0,98857	 mx: 1,36638	 mn: 0,89468
ax: -0,04642	 ay: -0,03078	 az: -1,01050 	 ma: 1,01204	 mx: 1,36638	 mn: 0,89468
ax: -0,01539	 ay: 0,05815	 az: -0,94551 	 ma: 0,94742	 mx: 1,36638	 mn: 0,89468
ax: -0,07110	 ay: 0,03860	 az: -0,98216 	 ma: 0,98549	 mx: 1,36638	 mn: 0,89468
ax: -0,07525	 ay: 0,01319	 az: -0,99633 	 ma: 0,99926	 mx: 1,36638	 mn: 0,89468
ax: -0,02785	 ay: 0,01051	 az: -1,02565 	 ma: 1,02608	 mx: 1,36638	 mn: 0,89468
ax: -0,08038	 ay: 0,03763	 az: -1,02809 	 ma: 1,03192	 mx: 1,36638	 mn: 0,89468
ax: -0,13438	 ay: 0,03298	 az: -1,01490 	 ma: 1,02429	 mx: 1,36638	 mn: 0,89468
ax: -0,14513	 ay: 0,01588	 az: -1,05570 	 ma: 1,06575	 mx: 1,36638	 mn: 0,89468
ax: -0,14928	 ay: 0,02223	 az: -1,06401 	 ma: 1,07466	 mx: 1,36638	 mn: 0,89468
ax: -0,06865	 ay: 0,00904	 az: -0,98534 	 ma: 0,98777	 mx: 1,36638	 mn: 0,89468
ax: 0,03396	 ay: 0,17518	 az: -1,13388 	 ma: 1,14784	 mx: 1,36638	 mn: 0,89468
ax: -0,07159	 ay: 0,02052	 az: -0,98338 	 ma: 0,98620	 mx: 1,36638	 mn: 0,89468
ax: 0,00757	 ay: -0,05839	 az: -1,08697 	 ma: 1,08857	 mx: 1,36638	 mn: 0,89468
ax: 0,07085	 ay: 0,12509	 az: -1,02467 	 ma: 1,03471	 mx: 1,36638	 mn: 0,89468
ax: -0,00391	 ay: 0,02297	 az: -1,03958 	 ma: 1,03984	 mx: 1,36638	 mn: 0,89468
ax: 0,00195	 ay: 0,01515	 az: -0,93916 	 ma: 0,93929	 mx: 1,36638	 mn: 0,89468
ax: 0,00562	 ay: 0,06499	 az: -0,90764 	 ma: 0,90999	 mx: 1,36638	 mn: 0,89468
ax: -0,01270	 ay: 0,13926	 az: -0,90227 	 ma: 0,91304	 mx: 1,36638	 mn: 0,89468
ax: -0,05839	 ay: 0,10286	 az: -0,95577 	 ma: 0,96307	 mx: 1,36638	 mn: 0,89468
ax: -0,03494	 ay: 0,06230	 az: -1,04520 	 ma: 1,04763	 mx: 1,36638	 mn: 0,89468
ax: -0,00122	 ay: -0,00464	 az: -1,03884 	 ma: 1,03885	 mx: 1,36638	 mn: 0,89468
ax: 0,06719	 ay: 0,04202	 az: -1,00122 	 ma: 1,00435	 mx: 1,36638	 mn: 0,89468
ax: 0,05351	 ay: 0,07403	 az: -1,03103 	 ma: 1,03506	 mx: 1,36638	 mn: 0,89468
ax: -0,02492	 ay: 0,04740	 az: -1,02101 	 ma: 1,02241	 mx: 1,36638	 mn: 0,89468
ax: -0,04935	 ay: 0,08331	 az: -1,06547 	 ma: 1,06987	 mx: 1,36638	 mn: 0,89468
ax: -0,06890	 ay: 0,09186	 az: -1,05668 	 ma: 1,06290	 mx: 1,36638	 mn: 0,89468
ax: -0,05937	 ay: 0,06841	 az: -1,13608 	 ma: 1,13969	 mx: 1,36638	 mn: 0,89468
ax: -0,05913	 ay: -0,01246	 az: -1,13022 	 ma: 1,13183	 mx: 1,36638	 mn: 0,89468
ax: 0,01026	 ay: 0,03714	 az: -1,05961 	 ma: 1,06031	 mx: 1,36638	 mn: 0,89468
ax: 0,02883	 ay: 0,07891	 az: -1,04788 	 ma: 1,05125	 mx: 1,36638	 mn: 0,89468
ax: -0,08258	 ay: 0,03127	 az: -0,97703 	 ma: 0,98101	 mx: 1,36638	 mn: 0,89468
ax: -0,14659	 ay: 0,01222	 az: -0,99291 	 ma: 1,00375	 mx: 1,36638	 mn: 0,89468
ax: -0,11923	 ay: 0,02419	 az: -1,04788 	 ma: 1,05492	 mx: 1,36638	 mn: 0,89468
ax: -0,09235	 ay: 0,05546	 az: -1,08649 	 ma: 1,09181	 mx: 1,36638	 mn: 0,89468
ax: -0,05668	 ay: 0,06988	 az: -1,10725 	 ma: 1,11090	 mx: 1,36638	 mn: 0,89468
ax: -0,12827	 ay: 0,03054	 az: -1,10285 	 ma: 1,11071	 mx: 1,36638	 mn: 0,89468
ax: -0,16516	 ay: -0,00293	 az: -1,08478 	 ma: 1,09728	 mx: 1,36638	 mn: 0,89468
ax: -0,19326	 ay: -0,01099	 az: -1,08111 	 ma: 1,09830	 mx: 1,36638	 mn: 0,89468
ax: -0,23137	 ay: -0,04935	 az: -1,14659 	 ma: 1,17074	 mx: 1,36638	 mn: 0,89468
ax: -0,13609	 ay: -0,06670	 az: -1,13853 	 ma: 1,14857	 mx: 1,36638	 mn: 0,89468
ax: -0,01368	 ay: 0,02541	 az: -1,20205 	 ma: 1,20239	 mx: 1,36638	 mn: 0,89468
ax: -0,01979	 ay: 0,02077	 az: -1,27119 	 ma: 1,27151	 mx: 1,36638	 mn: 0,89468
ax: -0,06084	 ay: 0,06572	 az: -1,28683 	 ma: 1,28994	 mx: 1,36638	 mn: 0,89468
ax: -0,10970	 ay: 0,04520	 az: -1,30368 	 ma: 1,30907	 mx: 1,36638	 mn: 0,89468
ax: -0,12485	 ay: 0,02932	 az: -1,30173 	 ma: 1,30803	 mx: 1,36638	 mn: 0,89468
ax: -0,11239	 ay: 0,01441	 az: -1,28438 	 ma: 1,28937	 mx: 1,36638	 mn: 0,89468
ax: -0,04544	 ay: 0,03494	 az: -1,28194 	 ma: 1,28322	 mx: 1,36638	 mn: 0,89468
ax: -0,01246	 ay: 0,05717	 az: -1,27681 	 ma: 1,27815	 mx: 1,36638	 mn: 0,89468
ax: 0,01148	 ay: 0,08136	 az: -1,28072 	 ma: 1,28335	 mx: 1,36638	 mn: 0,89468
ax: 0,01319	 ay: 0,14097	 az: -1,27412 	 ma: 1,28197	 mx: 1,36638	 mn: 0,89468
ax: -0,00366	 ay: 0,15954	 az: -1,24871 	 ma: 1,25887	 mx: 1,36638	 mn: 0,89468
ax: 0,02688	 ay: 0,14928	 az: -1,19154 	 ma: 1,20116	 mx: 1,36638	 mn: 0,89468
ax: -0,03640	 ay: 0,09993	 az: -1,18250 	 ma: 1,18728	 mx: 1,36638	 mn: 0,89468
ax: -0,06621	 ay: 0,11068	 az: -1,11092 	 ma: 1,11838	 mx: 1,36638	 mn: 0,89468
ax: -0,08820	 ay: 0,07549	 az: -1,03103 	 ma: 1,03754	 mx: 1,36638	 mn: 0,89468
ax: -0,09406	 ay: 0,03518	 az: -0,98412 	 ma: 0,98923	 mx: 1,36638	 mn: 0,89468
ax: -0,04886	 ay: 0,01613	 az: -1,01050 	 ma: 1,01181	 mx: 1,36638	 mn: 0,89468
ax: -0,09357	 ay: 0,04593	 az: -1,03103 	 ma: 1,03628	 mx: 1,36638	 mn: 0,89468
ax: -0,07183	 ay: 0,02859	 az: -0,99438 	 ma: 0,99738	 mx: 1,36638	 mn: 0,89468
ax: -0,06059	 ay: 0,00464	 az: -0,94771 	 ma: 0,94966	 mx: 1,36638	 mn: 0,89468
ax: -0,00464	 ay: -0,03885	 az: -0,96115 	 ma: 0,96195	 mx: 1,36638	 mn: 0,89468
ax: -0,03689	 ay: -0,00538	 az: -0,94893 	 ma: 0,94967	 mx: 1,36638	 mn: 0,89468
ax: -0,03201	 ay: -0,02150	 az: -0,93403 	 ma: 0,93483	 mx: 1,36638	 mn: 0,89468
ax: -0,01906	 ay: -0,00709	 az: -0,91839 	 ma: 0,91862	 mx: 1,36638	 mn: 0,89468
ax: -0,01246	 ay: -0,00928	 az: -0,90496 	 ma: 0,90509	 mx: 1,36638	 mn: 0,89468
ax: -0,01906	 ay: 0,01735	 az: -0,96091 	 ma: 0,96125	 mx: 1,36638	 mn: 0,89468
ax: -0,05864	 ay: 0,06352	 az: -0,94527 	 ma: 0,94921	 mx: 1,36638	 mn: 0,89468
ax: -0,03836	 ay: 0,04324	 az: -0,88614 	 ma: 0,88803	 mx: 1,36638	 mn: 0,88803
ax: -0,03787	 ay: -0,00171	 az: -0,82971 	 ma: 0,83057	 mx: 1,36638	 mn: 0,83057
ax: -0,01319	 ay: -0,02639	 az: -0,84119 	 ma: 0,84171	 mx: 1,36638	 mn: 0,83057
ax: -0,01295	 ay: 0,00244	 az: -0,87906 	 ma: 0,87916	 mx: 1,36638	 mn: 0,83057
ax: -0,03640	 ay: 0,03567	 az: -0,88443 	 ma: 0,88590	 mx: 1,36638	 mn: 0,83057
ax: -0,04447	 ay: 0,04178	 az: -0,87295 	 ma: 0,87508	 mx: 1,36638	 mn: 0,83057
ax: -0,05351	 ay: 0,02736	 az: -0,84461 	 ma: 0,84675	 mx: 1,36638	 mn: 0,83057
ax: -0,06572	 ay: 0,03420	 az: -0,83288 	 ma: 0,83617	 mx: 1,36638	 mn: 0,83057
ax: -0,08649	 ay: 0,05228	 az: -0,83410 	 ma: 0,84020	 mx: 1,36638	 mn: 0,83057
ax: -0,07818	 ay: 0,08502	 az: -0,85560 	 ma: 0,86337	 mx: 1,36638	 mn: 0,83057
ax: -0,08258	 ay: 0,08844	 az: -0,89567 	 ma: 0,90381	 mx: 1,36638	 mn: 0,83057
ax: -0,08844	 ay: 0,08795	 az: -0,91229 	 ma: 0,92077	 mx: 1,36638	 mn: 0,83057
ax: -0,09602	 ay: 0,06181	 az: -0,93721 	 ma: 0,94414	 mx: 1,36638	 mn: 0,83057
ax: -0,10506	 ay: 0,04984	 az: -0,96701 	 ma: 0,97398	 mx: 1,36638	 mn: 0,83057
ax: -0,13389	 ay: 0,04862	 az: -1,00268 	 ma: 1,01275	 mx: 1,36638	 mn: 0,83057
ax: -0,13755	 ay: 0,06084	 az: -1,01514 	 ma: 1,02623	 mx: 1,36638	 mn: 0,83057
ax: -0,15807	 ay: 0,03860	 az: -1,05766 	 ma: 1,07010	 mx: 1,36638	 mn: 0,83057
ax: -0,17640	 ay: 0,02297	 az: -1,08624 	 ma: 1,10071	 mx: 1,36638	 mn: 0,83057
ax: -0,21867	 ay: -0,03738	 az: -1,11898 	 ma: 1,14076	 mx: 1,36638	 mn: 0,83057
ax: -0,17127	 ay: 0,00342	 az: -1,10457 	 ma: 1,11777	 mx: 1,36638	 mn: 0,83057
ax: -0,18324	 ay: -0,00757	 az: -1,15954 	 ma: 1,17395	 mx: 1,36638	 mn: 0,83057
ax: -0,17200	 ay: 0,01026	 az: -1,20425 	 ma: 1,21651	 mx: 1,36638	 mn: 0,83057
ax: -0,18055	 ay: 0,03836	 az: -1,22428 	 ma: 1,23812	 mx: 1,36638	 mn: 0,83057
ax: -0,19203	 ay: 0,02712	 az: -1,19838 	 ma: 1,21398	 mx: 1,36638	 mn: 0,83057
ax: -0,18104	 ay: 0,00342	 az: -1,14488 	 ma: 1,15911	 mx: 1,36638	 mn: 0,83057
ax: -0,23137	 ay: -0,06743	 az: -1,11727 	 ma: 1,14297	 mx: 1,36638	 mn: 0,83057
ax: -0,16614	 ay: -0,06132	 az: -1,09259 	 ma: 1,10685	 mx: 1,36638	 mn: 0,83057
ax: -0,13584	 ay: -0,01490	 az: -1,13046 	 ma: 1,13869	 mx: 1,36638	 mn: 0,83057
ax: -0,12216	 ay: 0,03909	 az: -1,13535 	 ma: 1,14257	 mx: 1,36638	 mn: 0,83057
ax: -0,12558	 ay: 0,05815	 az: -1,05375 	 ma: 1,06280	 mx: 1,36638	 mn: 0,83057
ax: -0,14561	 ay: 0,03934	 az: -1,04153 	 ma: 1,05240	 mx: 1,36638	 mn: 0,83057
ax: -0,15734	 ay: 0,01784	 az: -1,02663 	 ma: 1,03877	 mx: 1,36638	 mn: 0,83057
ax: -0,12656	 ay: 0,05961	 az: -0,98876 	 ma: 0,99861	 mx: 1,36638	 mn: 0,83057
ax: -0,11825	 ay: 0,06865	 az: -0,98241 	 ma: 0,99188	 mx: 1,36638	 mn: 0,83057
ax: -0,11117	 ay: 0,10335	 az: -0,98118 	 ma: 0,99285	 mx: 1,36638	 mn: 0,83057
ax: -0,10457	 ay: 0,10481	 az: -0,96310 	 ma: 0,97442	 mx: 1,36638	 mn: 0,83057
ax: -0,09870	 ay: 0,12167	 az: -0,93818 	 ma: 0,95118	 mx: 1,36638	 mn: 0,83057
ax: -0,10139	 ay: 0,11165	 az: -0,92206 	 ma: 0,93431	 mx: 1,36638	 mn: 0,83057
ax: -0,12069	 ay: 0,08478	 az: -0,90471 	 ma: 0,91666	 mx: 1,36638	 mn: 0,83057
ax: -0,10286	 ay: 0,07427	 az: -0,87979 	 ma: 0,88889	 mx: 1,36638	 mn: 0,83057
ax: -0,10603	 ay: 0,08893	 az: -0,91668 	 ma: 0,92707	 mx: 1,36638	 mn: 0,83057
ax: -0,08698	 ay: 0,12167	 az: -0,97483 	 ma: 0,98624	 mx: 1,36638	 mn: 0,83057
ax: -0,05693	 ay: 0,14439	 az: -0,97947 	 ma: 0,99169	 mx: 1,36638	 mn: 0,83057
ax: -0,06523	 ay: 0,13780	 az: -0,97385 	 ma: 0,98572	 mx: 1,36638	 mn: 0,83057
ax: -0,10017	 ay: 0,11630	 az: -0,95431 	 ma: 0,96657	 mx: 1,36638	 mn: 0,83057
ax: -0,12558	 ay: 0,08185	 az: -0,94112 	 ma: 0,95298	 mx: 1,36638	 mn: 0,83057
ax: -0,09675	 ay: 0,08624	 az: -0,94307 	 ma: 0,95194	 mx: 1,36638	 mn: 0,83057
ax: -0,08820	 ay: 0,08111	 az: -0,96604 	 ma: 0,97344	 mx: 1,36638	 mn: 0,83057
ax: -0,09211	 ay: 0,07476	 az: -0,98045 	 ma: 0,98760	 mx: 1,36638	 mn: 0,83057
ax: -0,07207	 ay: 0,05375	 az: -1,00024 	 ma: 1,00427	 mx: 1,36638	 mn: 0,83057
ax: -0,09406	 ay: 0,04227	 az: -1,00073 	 ma: 1,00603	 mx: 1,36638	 mn: 0,83057
ax: -0,13071	 ay: 0,02516	 az: -1,00391 	 ma: 1,01269	 mx: 1,36638	 mn: 0,83057
ax: -0,15417	 ay: 0,00635	 az: -0,99193 	 ma: 1,00386	 mx: 1,36638	 mn: 0,83057
ax: -0,14073	 ay: -0,00440	 az: -0,99633 	 ma: 1,00623	 mx: 1,36638	 mn: 0,83057
ax: -0,12851	 ay: 0,01124	 az: -1,01588 	 ma: 1,02404	 mx: 1,36638	 mn: 0,83057
ax: -0,12802	 ay: 0,02297	 az: -1,02687 	 ma: 1,03508	 mx: 1,36638	 mn: 0,83057
ax: -0,09602	 ay: 0,04080	 az: -1,01319 	 ma: 1,01855	 mx: 1,36638	 mn: 0,83057
ax: -0,10481	 ay: 0,10139	 az: -0,89860 	 ma: 0,91036	 mx: 1,36638	 mn: 0,83057
ax: -0,11434	 ay: -0,07574	 az: -0,82433 	 ma: 0,83566	 mx: 1,36638	 mn: 0,83057
ax: -0,19326	 ay: -0,02174	 az: -0,48424 	 ma: 0,52183	 mx: 1,36638	 mn: 0,52183
ax: 0,04227	 ay: 0,13609	 az: 0,09309 	 ma: 0,17021	 mx: 1,36638	 mn: 0,17021
ax: 0,07330	 ay: 0,07501	 az: -0,06010 	 ma: 0,12087	 mx: 1,36638	 mn: 0,12087
ax: 0,07036	 ay: 0,04031	 az: -0,13609 	 ma: 0,15842	 mx: 1,36638	 mn: 0,12087
ax: 0,07574	 ay: 0,01099	 az: -0,17567 	 ma: 0,19161	 mx: 1,36638	 mn: 0,12087
ax: 0,07794	 ay: -0,00318	 az: -0,19423 	 ma: 0,20931	 mx: 1,36638	 mn: 0,12087
ax: 0,09602	 ay: -0,00684	 az: -0,18568 	 ma: 0,20915	 mx: 1,36638	 mn: 0,12087
ax: 0,11190	 ay: -0,00318	 az: -0,17713 	 ma: 0,20954	 mx: 1,36638	 mn: 0,12087
ax: 0,11239	 ay: -0,00855	 az: -0,17078 	 ma: 0,20462	 mx: 1,36638	 mn: 0,12087
ax: 0,09968	 ay: -0,00904	 az: -0,16492 	 ma: 0,19291	 mx: 1,36638	 mn: 0,12087
ax: 0,08722	 ay: -0,01099	 az: -0,16149 	 ma: 0,18387	 mx: 1,36638	 mn: 0,12087
ax: 0,06719	 ay: -0,01197	 az: -0,19765 	 ma: 0,20910	 mx: 1,36638	 mn: 0,12087
ax: -2,38724	 ay: 1,74321	 az: -1,25116 	 ma: 3,20984	 mx: 3,20984	 mn: 0,12087
ax: 0,00366	 ay: -0,59760	 az: -0,11483 	 ma: 0,60855	 mx: 3,20984	 mn: 0,12087
ax: 0,40361	 ay: -0,08307	 az: -0,20230 	 ma: 0,45905	 mx: 3,20984	 mn: 0,12087
ax: 0,00415	 ay: -0,40166	 az: -0,95064 	 ma: 1,03202	 mx: 3,20984	 mn: 0,12087
ax: -0,63572	 ay: -0,07891	 az: -1,43537 	 ma: 1,57183	 mx: 3,20984	 mn: 0,12087
ax: -0,04838	 ay: -0,09162	 az: -1,44759 	 ma: 1,45129	 mx: 3,20984	 mn: 0,12087
ax: -0,41119	 ay: 0,05619	 az: -1,14854 	 ma: 1,22122	 mx: 3,20984	 mn: 0,12087
ax: -0,18666	 ay: 0,05375	 az: -1,21671 	 ma: 1,23212	 mx: 3,20984	 mn: 0,12087
ax: -0,32543	 ay: 0,08771	 az: -1,13828 	 ma: 1,18713	 mx: 3,20984	 mn: 0,12087
ax: -0,23943	 ay: -0,02272	 az: -1,10652 	 ma: 1,13236	 mx: 3,20984	 mn: 0,12087
ax: -0,21085	 ay: -0,05546	 az: -1,11703 	 ma: 1,13810	 mx: 3,20984	 mn: 0,12087
ax: -0,16125	 ay: -0,05937	 az: -1,16198 	 ma: 1,17462	 mx: 3,20984	 mn: 0,12087
ax: -0,15294	 ay: -0,09357	 az: -1,13779 	 ma: 1,15183	 mx: 3,20984	 mn: 0,12087
ax: -0,08038	 ay: -0,13267	 az: -1,14585 	 ma: 1,15631	 mx: 3,20984	 mn: 0,12087
ax: -0,07891	 ay: -0,12534	 az: -1,14488 	 ma: 1,15442	 mx: 3,20984	 mn: 0,12087
ax: -0,07036	 ay: -0,16369	 az: -1,14634 	 ma: 1,16011	 mx: 3,20984	 mn: 0,12087
ax: -0,09822	 ay: -0,19472	 az: -1,12949 	 ma: 1,15035	 mx: 3,20984	 mn: 0,12087
ax: -0,08282	 ay: -0,17664	 az: -1,04959 	 ma: 1,06757	 mx: 3,20984	 mn: 0,12087
ax: -0,01344	 ay: -0,17542	 az: -1,02931 	 ma: 1,04424	 mx: 3,20984	 mn: 0,12087
ax: -0,03567	 ay: -0,15392	 az: -1,08038 	 ma: 1,09187	 mx: 3,20984	 mn: 0,12087
ax: -0,04764	 ay: -0,10897	 az: -1,10359 	 ma: 1,10998	 mx: 3,20984	 mn: 0,12087
ax: -0,03152	 ay: -0,07965	 az: -1,07916 	 ma: 1,08255	 mx: 3,20984	 mn: 0,12087
ax: -0,03763	 ay: -0,07403	 az: -1,00928 	 ma: 1,01269	 mx: 3,20984	 mn: 0,12087
ax: -0,05057	 ay: -0,03298	 az: -0,98900 	 ma: 0,99084	 mx: 3,20984	 mn: 0,12087
ax: -0,04691	 ay: 0,05302	 az: -1,10090 	 ma: 1,10317	 mx: 3,20984	 mn: 0,12087
ax: -0,05473	 ay: 0,07061	 az: -1,08135 	 ma: 1,08504	 mx: 3,20984	 mn: 0,12087
ax: -0,02297	 ay: 0,03811	 az: -1,03982 	 ma: 1,04077	 mx: 3,20984	 mn: 0,12087
ax: -0,03714	 ay: 0,03274	 az: -1,01637 	 ma: 1,01757	 mx: 3,20984	 mn: 0,12087
ax: -0,05668	 ay: 0,10164	 az: -1,04055 	 ma: 1,04704	 mx: 3,20984	 mn: 0,12087
ax: -0,09138	 ay: 0,16736	 az: -1,02565 	 ma: 1,04322	 mx: 3,20984	 mn: 0,12087
ax: -0,06597	 ay: 0,18055	 az: -1,10652 	 ma: 1,12309	 mx: 3,20984	 mn: 0,12087
ax: -0,03396	 ay: 0,24896	 az: -1,08209 	 ma: 1,11088	 mx: 3,20984	 mn: 0,12087
ax: -0,02492	 ay: 0,20889	 az: -1,08966 	 ma: 1,10978	 mx: 3,20984	 mn: 0,12087
ax: -0,00464	 ay: 0,35573	 az: -0,94527 	 ma: 1,01000	 mx: 3,20984	 mn: 0,12087
ax: -0,15636	 ay: 0,55705	 az: -0,74371 	 ma: 0,94226	 mx: 3,20984	 mn: 0,12087
ax: 0,11801	 ay: 0,22575	 az: -1,08893 	 ma: 1,11833	 mx: 3,20984	 mn: 0,12087
ax: 0,02614	 ay: 0,11239	 az: -1,24334 	 ma: 1,24868	 mx: 3,20984	 mn: 0,12087
ax: 0,00318	 ay: 0,18031	 az: -1,20693 	 ma: 1,22033	 mx: 3,20984	 mn: 0,12087
ax: 0,09675	 ay: 0,27950	 az: -1,03835 	 ma: 1,07966	 mx: 3,20984	 mn: 0,12087
ax: -0,02370	 ay: 0,22282	 az: -1,04446 	 ma: 1,06823	 mx: 3,20984	 mn: 0,12087
ax: 0,00513	 ay: 0,14781	 az: -1,06205 	 ma: 1,07230	 mx: 3,20984	 mn: 0,12087
ax: 0,00171	 ay: 0,16052	 az: -1,01319 	 ma: 1,02583	 mx: 3,20984	 mn: 0,12087
ax: 0,00513	 ay: 0,23259	 az: -1,00879 	 ma: 1,03527	 mx: 3,20984	 mn: 0,12087
ax: -0,21256	 ay: 0,21964	 az: -1,07427 	 ma: 1,11691	 mx: 3,20984	 mn: 0,12087
ax: -0,20303	 ay: 0,32006	 az: -0,96115 	 ma: 1,03318	 mx: 3,20984	 mn: 0,12087
ax: -0,16320	 ay: 0,23381	 az: -1,04226 	 ma: 1,08056	 mx: 3,20984	 mn: 0,12087
ax: -0,19888	 ay: 0,15685	 az: -1,10945 	 ma: 1,13800	 mx: 3,20984	 mn: 0,12087
ax: -0,20963	 ay: 0,22062	 az: -1,17542 	 ma: 1,21418	 mx: 3,20984	 mn: 0,12087
ax: -0,17909	 ay: 0,24725	 az: -1,18006 	 ma: 1,21891	 mx: 3,20984	 mn: 0,12087
ax: -0,14952	 ay: 0,24798	 az: -1,21695 	 ma: 1,25093	 mx: 3,20984	 mn: 0,12087
ax: -0,18519	 ay: 0,26997	 az: -1,08135 	 ma: 1,12983	 mx: 3,20984	 mn: 0,12087
ax: -0,18031	 ay: 0,13340	 az: -0,98827 	 ma: 1,01340	 mx: 3,20984	 mn: 0,12087
ax: -0,11898	 ay: 0,05131	 az: -0,96628 	 ma: 0,97493	 mx: 3,20984	 mn: 0,12087
ax: -0,09333	 ay: 0,08356	 az: -1,01734 	 ma: 1,02503	 mx: 3,20984	 mn: 0,12087
ax: -0,01759	 ay: 0,21696	 az: -1,02980 	 ma: 1,05256	 mx: 3,20984	 mn: 0,12087
ax: -0,06572	 ay: 0,23308	 az: -1,01001 	 ma: 1,03864	 mx: 3,20984	 mn: 0,12087
ax: -0,14903	 ay: 0,24798	 az: -0,97337 	 ma: 1,01545	 mx: 3,20984	 mn: 0,12087
ax: -0,22184	 ay: 0,02565	 az: -1,07525 	 ma: 1,09819	 mx: 3,20984	 mn: 0,12087
ax: 0,04447	 ay: 0,19106	 az: -0,99975 	 ma: 1,01882	 mx: 3,20984	 mn: 0,12087
ax: 0,02052	 ay: 0,12045	 az: -0,94747 	 ma: 0,95531	 mx: 3,20984	 mn: 0,12087
ax: 0,07989	 ay: 0,23479	 az: -0,97605 	 ma: 1,00707	 mx: 3,20984	 mn: 0,12087
ax: 0,11898	 ay: 0,27486	 az: -1,04837 	 ma: 1,09032	 mx: 3,20984	 mn: 0,12087
ax: 0,12876	 ay: 0,26142	 az: -1,01490 	 ma: 1,05591	 mx: 3,20984	 mn: 0,12087
ax: 0,03469	 ay: 0,18177	 az: -0,93574 	 ma: 0,95386	 mx: 3,20984	 mn: 0,12087
ax: -0,09870	 ay: 0,10897	 az: -0,95626 	 ma: 0,96750	 mx: 3,20984	 mn: 0,12087
ax: 0,03714	 ay: 0,15685	 az: -0,93476 	 ma: 0,94856	 mx: 3,20984	 mn: 0,12087
ax: 0,15710	 ay: 0,08966	 az: -0,99193 	 ma: 1,00829	 mx: 3,20984	 mn: 0,12087
ax: 0,34376	 ay: 0,18422	 az: -1,08966 	 ma: 1,15735	 mx: 3,20984	 mn: 0,12087
ax: 0,20914	 ay: 0,13999	 az: -1,07964 	 ma: 1,10859	 mx: 3,20984	 mn: 0,12087
ax: 0,09260	 ay: 0,02614	 az: -1,03029 	 ma: 1,03478	 mx: 3,20984	 mn: 0,12087
ax: 0,15368	 ay: 0,00440	 az: -0,92475 	 ma: 0,93744	 mx: 3,20984	 mn: 0,12087
ax: 0,14122	 ay: 0,06816	 az: -0,96921 	 ma: 0,98182	 mx: 3,20984	 mn: 0,12087
ax: 0,19374	 ay: 0,09406	 az: -0,97679 	 ma: 1,00025	 mx: 3,20984	 mn: 0,12087
ax: 0,17933	 ay: 0,06157	 az: -0,99169 	 ma: 1,00965	 mx: 3,20984	 mn: 0,12087
ax: 0,15074	 ay: 0,01270	 az: -1,05179 	 ma: 1,06262	 mx: 3,20984	 mn: 0,12087
ax: 0,22893	 ay: -0,05815	 az: -0,86538 	 ma: 0,89703	 mx: 3,20984	 mn: 0,12087
ax: 0,21109	 ay: 0,00757	 az: -1,13828 	 ma: 1,15771	 mx: 3,20984	 mn: 0,12087
ax: 0,23284	 ay: 0,06401	 az: -1,05912 	 ma: 1,08630	 mx: 3,20984	 mn: 0,12087
ax: 0,21671	 ay: 0,02981	 az: -1,03811 	 ma: 1,06091	 mx: 3,20984	 mn: 0,12087
ax: 0,11898	 ay: 0,01466	 az: -1,03151 	 ma: 1,03846	 mx: 3,20984	 mn: 0,12087
ax: 0,11898	 ay: 0,02223	 az: -1,04984 	 ma: 1,05679	 mx: 3,20984	 mn: 0,12087
ax: 0,14439	 ay: 0,04935	 az: -1,07647 	 ma: 1,08723	 mx: 3,20984	 mn: 0,12087
ax: 0,17347	 ay: 0,04007	 az: -1,05521 	 ma: 1,07013	 mx: 3,20984	 mn: 0,12087
ax: 0,16907	 ay: 0,00709	 az: -1,02834 	 ma: 1,04217	 mx: 3,20984	 mn: 0,12087
ax: 0,14561	 ay: 0,03445	 az: -1,03103 	 ma: 1,04183	 mx: 3,20984	 mn: 0,12087
ax: 0,14561	 ay: 0,05570	 az: -1,02883 	 ma: 1,04057	 mx: 3,20984	 mn: 0,12087
ax: -0,02883	 ay: -0,08185	 az: -1,12313 	 ma: 1,12648	 mx: 3,20984	 mn: 0,12087
ax: 0,10139	 ay: 0,00000	 az: -1,04495 	 ma: 1,04986	 mx: 3,20984	 mn: 0,12087
ax: 0,12827	 ay: -0,01026	 az: -1,03298 	 ma: 1,04096	 mx: 3,20984	 mn: 0,12087
ax: 0,09968	 ay: 0,06865	 az: -1,12118 	 ma: 1,12769	 mx: 3,20984	 mn: 0,12087
ax: 0,05082	 ay: 0,08624	 az: -1,16638 	 ma: 1,17067	 mx: 3,20984	 mn: 0,12087
ax: 0,01735	 ay: 0,07159	 az: -1,06059 	 ma: 1,06314	 mx: 3,20984	 mn: 0,12087
ax: 0,14830	 ay: -0,02663	 az: -1,12069 	 ma: 1,13077	 mx: 3,20984	 mn: 0,12087
ax: 0,14928	 ay: -0,04398	 az: -1,05570 	 ma: 1,06711	 mx: 3,20984	 mn: 0,12087
ax: 0,13047	 ay: 0,01710	 az: -0,98192 	 ma: 0,99069	 mx: 3,20984	 mn: 0,12087
ax: 0,11361	 ay: -0,06572	 az: -1,01148 	 ma: 1,01996	 mx: 3,20984	 mn: 0,12087
ax: 0,02003	 ay: 0,02810	 az: -1,07671 	 ma: 1,07727	 mx: 3,20984	 mn: 0,12087
ax: 0,07159	 ay: 0,09431	 az: -1,05766 	 ma: 1,06426	 mx: 3,20984	 mn: 0,12087
ax: -0,19839	 ay: -0,04838	 az: -1,03933 	 ma: 1,05920	 mx: 3,20984	 mn: 0,12087
ax: -0,06279	 ay: -0,05351	 az: -1,03029 	 ma: 1,03359	 mx: 3,20984	 mn: 0,12087
ax: 0,08551	 ay: -0,00415	 az: -1,04666 	 ma: 1,05016	 mx: 3,20984	 mn: 0,12087
ax: 0,07330	 ay: 0,00171	 az: -1,13779 	 ma: 1,14015	 mx: 3,20984	 mn: 0,12087
ax: 0,12558	 ay: -0,00709	 az: -1,06474 	 ma: 1,07214	 mx: 3,20984	 mn: 0,12087
ax: 0,06572	 ay: -0,02492	 az: -1,01930 	 ma: 1,02172	 mx: 3,20984	 mn: 0,12087
ax: -0,02223	 ay: 0,01173	 az: -0,97801 	 ma: 0,97833	 mx: 3,20984	 mn: 0,12087
ax: -0,04960	 ay: -0,03885	 az: -1,09919 	 ma: 1,10099	 mx: 3,20984	 mn: 0,12087
ax: 0,07940	 ay: 0,08600	 az: -1,16345 	 ma: 1,16932	 mx: 3,20984	 mn: 0,12087
ax: -0,01417	 ay: -0,02052	 az: -0,97727 	 ma: 0,97759	 mx: 3,20984	 mn: 0,12087
ax: -0,00733	 ay: 0,03445	 az: -1,05595 	 ma: 1,05653	 mx: 3,20984	 mn: 0,12087
ax: 0,12094	 ay: -0,03152	 az: -1,03469 	 ma: 1,04221	 mx: 3,20984	 mn: 0,12087
ax: 0,04911	 ay: 0,00538	 az: -1,06083 	 ma: 1,06198	 mx: 3,20984	 mn: 0,12087
ax: 0,08795	 ay: 0,02223	 az: -1,05106 	 ma: 1,05497	 mx: 3,20984	 mn: 0,12087
ax: -0,01417	 ay: 0,04251	 az: -1,03640 	 ma: 1,03737	 mx: 3,20984	 mn: 0,12087
ax: 0,02761	 ay: -0,01319	 az: -1,04568 	 ma: 1,04613	 mx: 3,20984	 mn: 0,12087
ax: 0,00611	 ay: -0,08576	 az: -1,05912 	 ma: 1,06261	 mx: 3,20984	 mn: 0,12087
ax: 0,03518	 ay: -0,04471	 az: -1,02541 	 ma: 1,02698	 mx: 3,20984	 mn: 0,12087
ax: 0,05399	 ay: -0,02810	 az: -1,03958 	 ma: 1,04136	 mx: 3,20984	 mn: 0,12087
ax: 0,06548	 ay: -0,03982	 az: -1,05155 	 ma: 1,05434	 mx: 3,20984	 mn: 0,12087
ax: 0,05424	 ay: -0,04202	 az: -1,05643 	 ma: 1,05866	 mx: 3,20984	 mn: 0,12087
ax: 0,04691	 ay: -0,02565	 az: -1,04153 	 ma: 1,04290	 mx: 3,20984	 mn: 0,12087
ax: -0,03665	 ay: -0,02810	 az: -1,01490 	 ma: 1,01595	 mx: 3,20984	 mn: 0,12087
ax: 0,03518	 ay: -0,05790	 az: -1,01319 	 ma: 1,01545	 mx: 3,20984	 mn: 0,12087
ax: 0,04569	 ay: -0,05155	 az: -1,04642 	 ma: 1,04868	 mx: 3,20984	 mn: 0,12087
ax: 0,36575	 ay: 0,06621	 az: -1,05448 	 ma: 1,11807	 mx: 3,20984	 mn: 0,12087
ax: 0,05009	 ay: -0,10359	 az: -1,06303 	 ma: 1,06924	 mx: 3,20984	 mn: 0,12087
ax: 0,16101	 ay: 0,12509	 az: -0,89665 	 ma: 0,91954	 mx: 3,20984	 mn: 0,12087
ax: 0,10359	 ay: -0,01979	 az: -1,10163 	 ma: 1,10667	 mx: 3,20984	 mn: 0,12087
ax: 0,05546	 ay: -0,05888	 az: -1,01612 	 ma: 1,01934	 mx: 3,20984	 mn: 0,12087
ax: 0,06108	 ay: -0,05766	 az: -1,03567 	 ma: 1,03907	 mx: 3,20984	 mn: 0,12087
ax: 0,06914	 ay: -0,05864	 az: -1,03542 	 ma: 1,03938	 mx: 3,20984	 mn: 0,12087
ax: 0,07110	 ay: -0,05057	 az: -1,04739 	 ma: 1,05102	 mx: 3,20984	 mn: 0,12087
ax: 0,07207	 ay: -0,05497	 az: -1,04178 	 ma: 1,04571	 mx: 3,20984	 mn: 0,12087
ax: 0,07061	 ay: -0,05473	 az: -1,04422 	 ma: 1,04803	 mx: 3,20984	 mn: 0,12087
ax: 0,07427	 ay: -0,05424	 az: -1,05301 	 ma: 1,05702	 mx: 3,20984	 mn: 0,12087
ax: 0,07501	 ay: -0,05057	 az: -1,04446 	 ma: 1,04837	 mx: 3,20984	 mn: 0,12087
ax: 0,07672	 ay: -0,05106	 az: -1,04813 	 ma: 1,05217	 mx: 3,20984	 mn: 0,12087
ax: 0,07696	 ay: -0,04862	 az: -1,03542 	 ma: 1,03942	 mx: 3,20984	 mn: 0,12087
ax: 0,07476	 ay: -0,04569	 az: -1,05008 	 ma: 1,05373	 mx: 3,20984	 mn: 0,12087
ax: 0,07305	 ay: -0,04838	 az: -1,04568 	 ma: 1,04935	 mx: 3,20984	 mn: 0,12087
ax: 0,08087	 ay: -0,04862	 az: -1,06328 	 ma: 1,06745	 mx: 3,20984	 mn: 0,12087
ax: 0,06963	 ay: -0,04984	 az: -1,04226 	 ma: 1,04578	 mx: 3,20984	 mn: 0,12087
ax: 0,07012	 ay: -0,05375	 az: -1,04251 	 ma: 1,04625	 mx: 3,20984	 mn: 0,12087
ax: 0,06939	 ay: -0,05693	 az: -1,04373 	 ma: 1,04758	 mx: 3,20984	 mn: 0,12087
ax: 0,06597	 ay: -0,05277	 az: -1,04422 	 ma: 1,04763	 mx: 3,20984	 mn: 0,12087
ax: 0,07281	 ay: -0,05473	 az: -1,05277 	 ma: 1,05670	 mx: 3,20984	 mn: 0,12087
ax: 0,07085	 ay: -0,04886	 az: -1,04080 	 ma: 1,04435	 mx: 3,20984	 mn: 0,12087
ax: 0,06988	 ay: -0,05082	 az: -1,04251 	 ma: 1,04608	 mx: 3,20984	 mn: 0,12087
ax: 0,07110	 ay: -0,04886	 az: -1,04910 	 ma: 1,05265	 mx: 3,20984	 mn: 0,12087
ax: 0,06841	 ay: -0,04715	 az: -1,04104 	 ma: 1,04435	 mx: 3,20984	 mn: 0,12087
ax: 0,07549	 ay: -0,05424	 az: -1,04446 	 ma: 1,04859	 mx: 3,20984	 mn: 0,12087
ax: 0,07110	 ay: -0,05106	 az: -1,05497 	 ma: 1,05859	 mx: 3,20984	 mn: 0,12087
ax: 0,07012	 ay: -0,05228	 az: -1,04055 	 ma: 1,04422	 mx: 3,20984	 mn: 0,12087
ax: 0,07232	 ay: -0,05057	 az: -1,04446 	 ma: 1,04818	 mx: 3,20984	 mn: 0,12087
ax: 0,07232	 ay: -0,05057	 az: -1,04422 	 ma: 1,04794	 mx: 3,20984	 mn: 0,12087
ax: 0,07183	 ay: -0,05106	 az: -1,05081 	 ma: 1,05450	 mx: 3,20984	 mn: 0,12087
ax: 0,07207	 ay: -0,05424	 az: -1,04153 	 ma: 1,04543	 mx: 3,20984	 mn: 0,12087
ax: 0,07305	 ay: -0,05228	 az: -1,04691 	 ma: 1,05075	 mx: 3,20984	 mn: 0,12087
ax: 0,07427	 ay: -0,05326	 az: -1,04446 	 ma: 1,04845	 mx: 3,20984	 mn: 0,12087
ax: 0,06988	 ay: -0,05277	 az: -1,04910 	 ma: 1,05275	 mx: 3,20984	 mn: 0,12087
ax: 0,07061	 ay: -0,05204	 az: -1,04373 	 ma: 1,04741	 mx: 3,20984	 mn: 0,12087
ax: 0,07207	 ay: -0,04960	 az: -1,04104 	 ma: 1,04471	 mx: 3,20984	 mn: 0,12087
ax: 0,07085	 ay: -0,05253	 az: -1,04544 	 ma: 1,04915	 mx: 3,20984	 mn: 0,12087
ax: 0,07183	 ay: -0,05033	 az: -1,04520 	 ma: 1,04887	 mx: 3,20984	 mn: 0,12087
ax: 0,07207	 ay: -0,05302	 az: -1,04129 	 ma: 1,04512	 mx: 3,20984	 mn: 0,12087
ax: 0,07232	 ay: -0,05228	 az: -1,03787 	 ma: 1,04170	 mx: 3,20984	 mn: 0,12087
ax: 0,07183	 ay: -0,05424	 az: -1,04300 	 ma: 1,04687	 mx: 3,20984	 mn: 0,12087
ax: 0,07085	 ay: -0,05057	 az: -1,04910 	 ma: 1,05271	 mx: 3,20984	 mn: 0,12087
ax: 0,07012	 ay: -0,05180	 az: -1,04275 	 ma: 1,04639	 mx: 3,20984	 mn: 0,12087
ax: 0,07110	 ay: -0,05448	 az: -1,04862 	 ma: 1,05243	 mx: 3,20984	 mn: 0,12087
ax: 0,07110	 ay: -0,05570	 az: -1,04349 	 ma: 1,04739	 mx: 3,20984	 mn: 0,12087
ax: 0,07207	 ay: -0,05693	 az: -1,04593 	 ma: 1,04995	 mx: 3,20984	 mn: 0,12087
ax: 0,07036	 ay: -0,05497	 az: -1,04617 	 ma: 1,04998	 mx: 3,20984	 mn: 0,12087
ax: 0,07476	 ay: -0,05204	 az: -1,04422 	 ma: 1,04818	 mx: 3,20984	 mn: 0,12087
ax: 0,07378	 ay: -0,05204	 az: -1,04984 	 ma: 1,05371	 mx: 3,20984	 mn: 0,12087
ax: 0,07501	 ay: -0,05033	 az: -1,04935 	 ma: 1,05323	 mx: 3,20984	 mn: 0,12087
ax: 0,07159	 ay: -0,05180	 az: -1,04910 	 ma: 1,05282	 mx: 3,20984	 mn: 0,12087
ax: 0,07476	 ay: -0,05106	 az: -1,04617 	 ma: 1,05008	 mx: 3,20984	 mn: 0,12087
ax: 0,07207	 ay: -0,05302	 az: -1,04300 	 ma: 1,04683	 mx: 3,20984	 mn: 0,12087
ax: 0,06865	 ay: -0,04960	 az: -1,04593 	 ma: 1,04935	 mx: 3,20984	 mn: 0,12087
ax: 0,07012	 ay: -0,04715	 az: -1,04349 	 ma: 1,04690	 mx: 3,20984	 mn: 0,12087
ax: 0,07256	 ay: -0,05473	 az: -1,04837 	 ma: 1,05230	 mx: 3,20984	 mn: 0,12087
ax: 0,07085	 ay: -0,05424	 az: -1,05472 	 ma: 1,05849	 mx: 3,20984	 mn: 0,12087
ax: 0,06694	 ay: -0,05106	 az: -1,05081 	 ma: 1,05418	 mx: 3,20984	 mn: 0,12087
ax: 0,07134	 ay: -0,05277	 az: -1,04715 	 ma: 1,05090	 mx: 3,20984	 mn: 0,12087
ax: 0,07207	 ay: -0,05351	 az: -1,04764 	 ma: 1,05148	 mx: 3,20984	 mn: 0,12087
ax: 0,07061	 ay: -0,05277	 az: -1,04031 	 ma: 1,04404	 mx: 3,20984	 mn: 0,12087
ax: 0,07110	 ay: -0,05375	 az: -1,04568 	 ma: 1,04948	 mx: 3,20984	 mn: 0,12087
ax: 0,07134	 ay: -0,05228	 az: -1,04006 	 ma: 1,04382	 mx: 3,20984	 mn: 0,12087
ax: 0,07159	 ay: -0,04886	 az: -1,04837 	 ma: 1,05195	 mx: 3,20984	 mn: 0,12087
ax: 0,07330	 ay: -0,05009	 az: -1,04226 	 ma: 1,04604	 mx: 3,20984	 mn: 0,12087
ax: 0,07012	 ay: -0,05228	 az: -1,04813 	 ma: 1,05177	 mx: 3,20984	 mn: 0,12087
ax: 0,07183	 ay: -0,05204	 az: -1,05277 	 ma: 1,05650	 mx: 3,20984	 mn: 0,12087
ax: 0,07061	 ay: -0,05204	 az: -1,04349 	 ma: 1,04717	 mx: 3,20984	 mn: 0,12087
ax: 0,07378	 ay: -0,05302	 az: -1,05228 	 ma: 1,05620	 mx: 3,20984	 mn: 0,12087
ax: 0,06865	 ay: -0,05424	 az: -1,04666 	 ma: 1,05031	 mx: 3,20984	 mn: 0,12087
ax: 0,07012	 ay: -0,05570	 az: -1,04129 	 ma: 1,04513	 mx: 3,20984	 mn: 0,12087
ax: 0,07305	 ay: -0,05155	 az: -1,04446 	 ma: 1,04828	 mx: 3,20984	 mn: 0,12087
ax: 0,07012	 ay: -0,05228	 az: -1,04520 	 ma: 1,04885	 mx: 3,20984	 mn: 0,12087
ax: 0,07281	 ay: -0,05180	 az: -1,04666 	 ma: 1,05047	 mx: 3,20984	 mn: 0,12087
ax: 0,06865	 ay: -0,04813	 az: -1,04202 	 ma: 1,04539	 mx: 3,20984	 mn: 0,12087
ax: 0,07036	 ay: -0,05228	 az: -1,04642 	 ma: 1,05008	 mx: 3,20984	 mn: 0,12087
ax: 0,07207	 ay: -0,05326	 az: -1,04910 	 ma: 1,05293	 mx: 3,20984	 mn: 0,12087
ax: 0,07354	 ay: -0,05399	 az: -1,04813 	 ma: 1,05209	 mx: 3,20984	 mn: 0,12087
ax: 0,07061	 ay: -0,05082	 az: -1,03909 	 ma: 1,04272	 mx: 3,20984	 mn: 0,12087
ax: 0,07598	 ay: -0,04911	 az: -1,04104 	 ma: 1,04497	 mx: 3,20984	 mn: 0,12087
ax: 0,07159	 ay: -0,05424	 az: -1,04202 	 ma: 1,04588	 mx: 3,20984	 mn: 0,12087
ax: 0,07183	 ay: -0,05253	 az: -1,04349 	 ma: 1,04727	 mx: 3,20984	 mn: 0,12087
ax: 0,07159	 ay: -0,05180	 az: -1,04642 	 ma: 1,05014	 mx: 3,20984	 mn: 0,12087
ax: 0,07134	 ay: -0,05448	 az: -1,04055 	 ma: 1,04442	 mx: 3,20984	 mn: 0,12087
ax: 0,07134	 ay: -0,05448	 az: -1,04739 	 ma: 1,05123	 mx: 3,20984	 mn: 0,12087
ax: 0,07159	 ay: -0,05253	 az: -1,04324 	 ma: 1,04701	 mx: 3,20984	 mn: 0,12087
ax: 0,06865	 ay: -0,05326	 az: -1,04544 	 ma: 1,04904	 mx: 3,20984	 mn: 0,12087
ax: 0,07281	 ay: -0,05424	 az: -1,05326 	 ma: 1,05716	 mx: 3,20984	 mn: 0,12087
ax: 0,07378	 ay: -0,05424	 az: -1,04471 	 ma: 1,04871	 mx: 3,20984	 mn: 0,12087
ax: 0,06988	 ay: -0,04886	 az: -1,04471 	 ma: 1,04818	 mx: 3,20984	 mn: 0,12087
ax: 0,07183	 ay: -0,05424	 az: -1,03738 	 ma: 1,04127	 mx: 3,20984	 mn: 0,12087
ax: 0,06621	 ay: -0,05106	 az: -1,04666 	 ma: 1,05000	 mx: 3,20984	 mn: 0,12087
ax: 0,07403	 ay: -0,04984	 az: -1,04593 	 ma: 1,04973	 mx: 3,20984	 mn: 0,12087
ax: 0,07256	 ay: -0,05522	 az: -1,05204 	 ma: 1,05598	 mx: 3,20984	 mn: 0,12087
ax: 0,06988	 ay: -0,05106	 az: -1,04446 	 ma: 1,04804	 mx: 3,20984	 mn: 0,12087
ax: 0,06988	 ay: -0,05106	 az: -1,04837 	 ma: 1,05194	 mx: 3,20984	 mn: 0,12087
ax: 0,06988	 ay: -0,05131	 az: -1,04129 	 ma: 1,04489	 mx: 3,20984	 mn: 0,12087
ax: 0,07720	 ay: -0,05180	 az: -1,04275 	 ma: 1,04689	 mx: 3,20984	 mn: 0,12087
ax: 0,07305	 ay: -0,05375	 az: -1,05033 	 ma: 1,05423	 mx: 3,20984	 mn: 0,12087
ax: 0,06963	 ay: -0,04984	 az: -1,04324 	 ma: 1,04675	 mx: 3,20984	 mn: 0,12087
ax: 0,07305	 ay: -0,05204	 az: -1,04397 	 ma: 1,04782	 mx: 3,20984	 mn: 0,12087
ax: 0,07110	 ay: -0,05180	 az: -1,04910 	 ma: 1,05279	 mx: 3,20984	 mn: 0,12087
ax: 0,07549	 ay: -0,05057	 az: -1,04544 	 ma: 1,04938	 mx: 3,20984	 mn: 0,12087
ax: 0,07110	 ay: -0,05326	 az: -1,04275 	 ma: 1,04653	 mx: 3,20984	 mn: 0,12087
ax: 0,06988	 ay: -0,05473	 az: -1,04520 	 ma: 1,04896	 mx: 3,20984	 mn: 0,12087
ax: 0,07061	 ay: -0,04935	 az: -1,04422 	 ma: 1,04777	 mx: 3,20984	 mn: 0,12087
ax: 0,07134	 ay: -0,05253	 az: -1,04397 	 ma: 1,04773	 mx: 3,20984	 mn: 0,12087
ax: 0,06939	 ay: -0,04764	 az: -1,04544 	 ma: 1,04882	 mx: 3,20984	 mn: 0,12087
ax: 0,06914	 ay: -0,05082	 az: -1,04471 	 ma: 1,04823	 mx: 3,20984	 mn: 0,12087
ax: 0,07281	 ay: -0,04544	 az: -1,04397 	 ma: 1,04750	 mx: 3,20984	 mn: 0,12087
ax: 0,07061	 ay: -0,05131	 az: -1,04886 	 ma: 1,05249	 mx: 3,20984	 mn: 0,12087
ax: 0,07110	 ay: -0,05228	 az: -1,05350 	 ma: 1,05719	 mx: 3,20984	 mn: 0,12087
ax: 0,07159	 ay: -0,05253	 az: -1,04886 	 ma: 1,05261	 mx: 3,20984	 mn: 0,12087
ax: 0,06963	 ay: -0,05106	 az: -1,04862 	 ma: 1,05217	 mx: 3,20984	 mn: 0,12087
ax: 0,07305	 ay: -0,05253	 az: -1,04739 	 ma: 1,05125	 mx: 3,20984	 mn: 0,12087
ax: 0,07330	 ay: -0,05009	 az: -1,04104 	 ma: 1,04482	 mx: 3,20984	 mn: 0,12087
ax: 0,06939	 ay: -0,04984	 az: -1,05204 	 ma: 1,05550	 mx: 3,20984	 mn: 0,12087
ax: 0,07183	 ay: -0,05106	 az: -1,04788 	 ma: 1,05158	 mx: 3,20984	 mn: 0,12087
ax: 0,07134	 ay: -0,05399	 az: -1,04691 	 ma: 1,05072	 mx: 3,20984	 mn: 0,12087
ax: 0,06914	 ay: -0,05155	 az: -1,05204 	 ma: 1,05557	 mx: 3,20984	 mn: 0,12087
ax: 0,07134	 ay: -0,05155	 az: -1,04739 	 ma: 1,05109	 mx: 3,20984	 mn: 0,12087
ax: 0,06988	 ay: -0,05595	 az: -1,04006 	 ma: 1,04391	 mx: 3,20984	 mn: 0,12087
ax: 0,07085	 ay: -0,05326	 az: -1,05033 	 ma: 1,05406	 mx: 3,20984	 mn: 0,12087
ax: 0,07403	 ay: -0,05375	 az: -1,04886 	 ma: 1,05284	 mx: 3,20984	 mn: 0,12087
ax: 0,06743	 ay: -0,05766	 az: -1,04300 	 ma: 1,04676	 mx: 3,20984	 mn: 0,12087